9.599956564670838466e-01
9.531169577109411817e-01
9.542958538725284656e-01
9.819187049086927077e-01
1.012308520419634039e+00
1.023923038674901642e+00
1.024890624654307025e+00
1.024596772569316583e+00
1.024949167239778358e+00
1.025477636393580028e+00
1.025519680107406906e+00
1.022382842968269090e+00
1.008660946430606220e+00
9.784343499667813582e-01
9.531097913966397606e-01
9.556768637859651694e-01
1.038888986404275627e+00
1.034471377033926887e+00
1.034786774889722594e+00
1.046885448815529696e+00
1.057875677563094641e+00
1.061155275403666165e+00
1.061252994044080689e+00
1.061577781528155739e+00
1.062337361460064189e+00
1.063663353203986972e+00
1.064823901884984991e+00
1.064626134203115360e+00
1.060540748774981390e+00
1.049307099995417270e+00
1.037843035836398808e+00
1.038897471001948292e+00
1.007241310770260467e+00
1.004285371616329581e+00
1.005785410131098567e+00
1.017126131211781637e+00
1.027353696133632477e+00
1.030460894936392258e+00
1.029235500138990345e+00
1.027496656326240210e+00
1.027165163533511949e+00
1.028137535641683087e+00
1.028807403514396368e+00
1.027175895869163913e+00
1.021729409723355797e+00
1.011830241811615627e+00
1.002713884737808536e+00
1.003140798155233382e+00
8.045667157607704345e-01
7.942140087790572345e-01
7.842968695875567331e-01
7.918433914600953027e-01
8.028392076219229567e-01
8.057191164561231522e-01
8.042484551997002296e-01
8.037177890891936682e-01
8.051046796611340817e-01
8.070816293568111588e-01
8.085786280173372642e-01
8.076649682823445753e-01
8.022943202553480813e-01
7.934257773741156816e-01
7.921034356197743653e-01
8.074676432312571928e-01
7.036217658523149510e-01
6.866011103778000280e-01
6.631201389824104009e-01
6.596386417870213625e-01
6.642740772160447005e-01
6.642416235172298178e-01
6.624993788079974744e-01
6.612739875257593880e-01
6.605292532463842292e-01
6.607040882504710000e-01
6.612657996630135759e-01
6.602872245705124765e-01
6.561857592262342331e-01
6.513735559950812881e-01
6.602923523769423930e-01
6.905603926169423534e-01
7.504529339914373098e-01
7.369271803806425325e-01
7.189221689480840283e-01
7.175646364847944048e-01
7.230189448006971720e-01
7.245913079404724400e-01
7.241869697303704445e-01
7.240333238965237506e-01
7.231374471660032555e-01
7.212219132227535301e-01
7.192658863803005342e-01
7.163008992049236801e-01
7.102225798719103977e-01
7.031900791709032594e-01
7.075762783281857038e-01
7.310341720004334132e-01
8.732723640542644494e-01
8.666642991161832565e-01
8.605520427895941848e-01
8.653161717487306559e-01
8.727294764821513784e-01
8.768341253812057534e-01
8.782658588154913515e-01
8.781319589616624066e-01
8.775244597147315861e-01
8.775064943010302265e-01
8.773750257421725207e-01
8.755043761786911460e-01
8.705325569864074131e-01
8.625670740238839951e-01
8.582260619027898274e-01
8.654075072372435784e-01
9.237505486001269528e-01
9.183777905253889262e-01
9.153487193656727472e-01
9.229850855004987364e-01
9.310296852442100368e-01
9.339443937583492561e-01
9.340761470245744214e-01
9.338993059586697676e-01
9.346940210286126538e-01
9.367894464181701908e-01
9.386105099624229009e-01
9.379295681810437824e-01
9.328619013851738861e-01
9.240815699388856830e-01
9.186596907503206122e-01
9.238475482382951798e-01
9.037965837926699164e-01
8.943754350374716333e-01
8.832778833204241176e-01
8.857971406215139343e-01
8.933981312481642512e-01
8.966196740832166334e-01
8.958635054027160871e-01
8.939660211737442408e-01
8.926054386978945487e-01
8.930021671463143074e-01
8.939624167081302586e-01
8.927903990874778151e-01
8.878476695858336099e-01
8.808180830129918037e-01
8.806499698625586126e-01
8.936434256050448388e-01
1.081920266721889901e+00
1.081118021305515597e+00
1.088022155703476379e+00
1.103493154295122736e+00
1.114519668964438770e+00
1.116578689041486161e+00
1.113945885709630712e+00
1.109418467325499646e+00
1.104260934648132242e+00
1.100232576402413898e+00
1.098321480201920997e+00
1.097702341709381635e+00
1.095352000510042778e+00
1.086783917951219758e+00
1.074493442836411905e+00
1.070414435665769215e+00
1.166738630559701395e+00
1.165579430083607537e+00
1.170620665560741847e+00
1.182826953603736797e+00
1.192691803027196684e+00
1.196950442548720073e+00
1.198685520824654294e+00
1.199815302319120480e+00
1.200767583555449214e+00
1.202081668876540999e+00
1.203687436321552173e+00
1.203708372359362899e+00
1.199006907657718335e+00
1.186461755610426660e+00
1.168946123660290271e+00
1.159277050683779064e+00
1.232701092987080083e+00
1.228269712201683905e+00
1.226794229929804692e+00
1.233294000850463812e+00
1.240032618708128309e+00
1.242899992444365553e+00
1.243614634660362261e+00
1.242821477868792268e+00
1.241642802682986213e+00
1.241867504654939225e+00
1.243005800938383087e+00
1.242499266068227914e+00
1.237720035623246950e+00
1.228992120650975295e+00
1.220605672791746699e+00
1.220650638783973507e+00
1.252836569045035153e+00
1.246916059404364674e+00
1.241962867878475318e+00
1.244278426885809585e+00
1.247159375063323639e+00
1.247702392127908011e+00
1.248370762439200199e+00
1.249102961952076818e+00
1.250120416285873448e+00
1.252303698496667339e+00
1.254848028551380335e+00
1.256869563442647220e+00
1.256482785882826692e+00
1.251816493876485969e+00
1.245380842481780936e+00
1.245446748946665183e+00
1.176694673801006230e+00
1.171411723452498110e+00
1.168047435673160495e+00
1.172394301302002395e+00
1.176138355749527520e+00
1.175685597000891258e+00
1.174954287386763330e+00
1.175039063811180284e+00
1.175523871527029751e+00
1.176774538126437619e+00
1.177841448722658946e+00
1.177841020426176888e+00
1.176745779972470096e+00
1.174413904728503821e+00
1.173133033596851948e+00
1.178935290251038381e+00
1.100223427072082538e+00
1.095460491640036116e+00
1.093466806346468090e+00
1.100177808035762039e+00
1.106698636085748477e+00
1.109655485535641528e+00
1.111248531718727950e+00
1.112093336197119697e+00
1.112413162007986678e+00
1.112608844129107100e+00
1.111849579591786208e+00
1.108934014670006407e+00
1.104046229518860667e+00
1.098336775231052886e+00
1.097489002491289112e+00
1.107706689024710256e+00
1.047766503233849233e+00
1.039335152642488547e+00
1.030608135602618658e+00
1.032398529963912903e+00
1.038466510038805968e+00
1.043716624248373970e+00
1.048023694398465766e+00
1.050539219807202551e+00
1.050329166945353609e+00
1.049256692136681934e+00
1.048716052887026740e+00
1.047112258127530504e+00
1.042033655085477406e+00
1.035158183100998164e+00
1.033653653061726185e+00
1.044127706370555853e+00
1.140225575389243851e+00
1.141360666683303604e+00
1.153491520669133186e+00
1.172744600557819927e+00
1.186997002854911498e+00
1.194389021019066410e+00
1.198801673992256678e+00
1.200609248148399422e+00
1.199413140023009472e+00
1.197278797889193225e+00
1.195850617267332217e+00
1.194765375566575694e+00
1.190132100269794657e+00
1.177148111007198850e+00
1.157701767732190135e+00
1.145853563019255672e+00
1.092291119972700342e+00
1.096328504647587243e+00
1.118328793852928937e+00
1.150649059514601502e+00
1.174697563015949742e+00
1.187435417621761635e+00
1.194056737535786006e+00
1.196064034765712769e+00
1.194486629434105218e+00
1.191791243201329120e+00
1.189636254185775455e+00
1.186450366725568362e+00
1.176380349680160586e+00
1.152537262235571403e+00
1.119669826242375210e+00
1.099997502336529820e+00
9.225361928007830281e-01
9.167449262133666732e-01
9.180732901839483429e-01
9.323551425421170435e-01
9.452112792164972799e-01
9.505120933110293713e-01
9.525549034817927252e-01
9.540711200635377809e-01
9.553299610139438514e-01
9.565051637491300829e-01
9.564488828782932162e-01
9.531717193523385756e-01
9.442603882855230557e-01
9.303668358453004439e-01
9.194532999148443686e-01
9.245639965701635266e-01
7.650721068210113440e-01
7.517335580877873014e-01
7.436382937165246787e-01
7.576070506307085450e-01
7.717678145962293401e-01
7.756436377060842435e-01
7.758550098869859690e-01
7.759194547616441451e-01
7.765203223367650454e-01
7.786782292399589966e-01
7.809936962082320022e-01
7.797641687633954932e-01
7.714808047070900177e-01
7.568374792268687257e-01
7.478871769812464043e-01
7.615995624956760635e-01
6.371904425260955795e-01
6.099059928323762314e-01
5.725557020936429264e-01
5.683953660856940759e-01
5.787717037231702166e-01
5.844383934395819269e-01
5.858425035571124262e-01
5.826743724936177538e-01
5.779214142749431460e-01
5.755628431673910361e-01
5.746455064440425531e-01
5.700454005804799218e-01
5.608974094184736581e-01
5.566611517193156278e-01
5.781441150493510372e-01
6.313780170711611461e-01
7.371283011525187057e-01
6.993911461289270548e-01
6.379483698252685908e-01
6.180273746474073127e-01
6.298420468000676120e-01
6.401239282195209102e-01
6.436683480933326207e-01
6.405078109770532269e-01
6.339336657395928665e-01
6.290500202410712616e-01
6.267380643210360702e-01
6.210219057318486779e-01
6.089700992808132485e-01
6.021005269493059364e-01
6.337026109039065602e-01
7.054460762421337350e-01
1.472893406912762382e+00
1.466744039046708137e+00
1.466207591980609459e+00
1.483249128424113827e+00
1.502995583903680821e+00
1.512084515948416641e+00
1.513314397651560173e+00
1.511510933315461713e+00
1.509683474502259592e+00
1.508562172122979161e+00
1.506851031606524893e+00
1.502222683824860461e+00
1.491792515395371943e+00
1.477321358535858886e+00
1.471145614941360424e+00
1.482762214210280982e+00
1.586303336562143951e+00
1.586199479032355253e+00
1.595403187676841084e+00
1.615307796724348544e+00
1.632169722403176593e+00
1.639091844559848354e+00
1.639945449358051643e+00
1.638996398716197067e+00
1.638936968138255068e+00
1.640427132798854881e+00
1.641537234516642574e+00
1.639755475913670324e+00
1.632680593729902485e+00
1.618377138139267091e+00
1.603733613482240195e+00
1.601100312579483376e+00
9.119173861541504111e-01
8.779992552458136812e-01
8.138270114106587183e-01
7.692925040194914521e-01
7.510609433020846160e-01
7.441351419137552936e-01
7.403228235098122667e-01
7.368794925556416686e-01
7.343300645435085761e-01
7.343504357849369724e-01
7.353418100413524616e-01
7.344320511461013279e-01
7.356765107862003328e-01
7.528888612745353592e-01
8.011097701456361131e-01
8.695022576715655260e-01
8.486475651428796452e-01
8.229798820262995696e-01
7.829785453657958083e-01
7.678341589429458214e-01
7.701281205465948521e-01
7.738556331424261137e-01
7.749623418991595791e-01
7.729752629637932637e-01
7.702946346258852106e-01
7.697796960377824016e-01
7.721376923133923542e-01
7.729888832488541750e-01
7.693451486502361769e-01
7.671434263569075762e-01
7.855162890755891247e-01
8.309086331555576299e-01
8.602266534449937163e-01
8.391176149446204491e-01
8.062507950351115449e-01
7.929354299082786994e-01
7.935983662236822944e-01
7.955657263632460729e-01
7.954677299229863108e-01
7.940775727785001070e-01
7.936187273505770357e-01
7.955480526044829137e-01
7.977968166770496028e-01
7.977695589122562048e-01
7.955081687151244196e-01
7.975504566125128925e-01
8.208676025906913587e-01
8.684779689995112406e-01
7.661195005528347313e-01
7.392146120489739847e-01
6.954147679880517963e-01
6.737779250130299102e-01
6.704867962021621164e-01
6.711056538009660954e-01
6.720724247918454797e-01
6.730144193375232620e-01
6.739236550807259363e-01
6.749926507539012466e-01
6.765637543792906161e-01
6.765700066087058095e-01
6.741370602250531530e-01
6.779395927372059427e-01
7.067565666120549928e-01
7.614720426577625823e-01
7.894044293710194005e-01
7.642014112472940157e-01
7.251748967177025218e-01
7.090557694229912000e-01
7.096613000306472019e-01
7.120276090457513529e-01
7.121577163136114663e-01
7.105381176305819446e-01
7.091388546057761921e-01
7.097397376848679773e-01
7.108463597030399983e-01
7.109607621140636713e-01
7.103434107085614402e-01
7.145664840820356023e-01
7.419522821440800442e-01
7.954994849546892510e-01
7.959618189014637801e-01
7.699065872740407102e-01
7.300529881877807492e-01
7.123904290152636154e-01
7.110893912938658357e-01
7.123169122556616273e-01
7.116010695610061054e-01
7.098397188711447203e-01
7.088249621981110860e-01
7.104379279497223809e-01
7.134391650607870838e-01
7.146574291523721811e-01
7.119832496303851732e-01
7.096493160061566607e-01
7.264383495812765101e-01
7.704581108110765131e-01
8.391493751921991207e-01
8.205690207851180640e-01
7.972947156880683117e-01
7.963747842508183128e-01
8.057138879160236078e-01
8.116827935470255495e-01
8.125495114217188286e-01
8.094183751195492826e-01
8.065750074273687620e-01
8.070137871113440831e-01
8.089345383451599369e-01
8.077666956599853787e-01
8.012969347014445853e-01
7.942830330960755081e-01
8.042094235121464152e-01
8.391179046684337228e-01
7.476581445372507684e-01
7.229338724325424792e-01
6.826265853481334744e-01
6.611122483323396137e-01
6.562426248464894307e-01
6.579262117378954500e-01
6.602966422388262258e-01
6.617228105920602843e-01
6.632800819159722083e-01
6.663153930612819575e-01
6.688082296144095551e-01
6.683155544776214763e-01
6.649136843514424910e-01
6.658062862158421469e-01
6.853329073211263944e-01
7.252805933434340879e-01
8.572995511247205602e-01
8.404317062836390573e-01
8.166532837981218540e-01
8.079767087781931645e-01
8.082006173754312517e-01
8.104867433201824456e-01
8.131732704366640974e-01
8.154025941289624324e-01
8.177820072524234485e-01
8.203387156160374394e-01
8.220427888784921366e-01
8.217835753827273937e-01
8.196899306734332091e-01
8.187517380847011417e-01
8.271865895177964445e-01
8.509091153650454320e-01
9.652689439211131761e-01
9.488147150035612931e-01
9.284102655072352661e-01
9.267476246291369568e-01
9.324695179899646913e-01
9.353073239731101163e-01
9.368007852265288760e-01
9.385476753885216850e-01
9.412323480677530219e-01
9.454004355134356663e-01
9.481280200533201974e-01
9.462898154989525246e-01
9.392528497293797241e-01
9.305100228525460260e-01
9.324813458723710813e-01
9.543804619871528727e-01
1.122295568366785012e+00
1.111431759941929220e+00
1.102937886101819975e+00
1.111006173913759554e+00
1.122307664585651787e+00
1.127931989958780079e+00
1.129995376425932285e+00
1.130362406454546331e+00
1.131756533060723102e+00
1.135018813541041061e+00
1.137961850076092629e+00
1.138067429609429970e+00
1.132899547376026383e+00
1.122198305272032126e+00
1.117575506696401266e+00
1.130945247390398256e+00
9.875258604169928622e-01
9.616101802277335908e-01
9.183156843329540742e-01
8.926038872544334035e-01
8.830341930084093516e-01
8.783731154529779150e-01
8.756127270585322142e-01
8.741817463399798038e-01
8.751166735454664058e-01
8.783929039509656977e-01
8.822496384025103611e-01
8.846357077407239755e-01
8.857354338624047196e-01
8.928680648418231280e-01
9.188190173486736612e-01
9.643659121451583216e-01
1.018299312351049535e+00
9.932706087487528368e-01
9.517158923913219271e-01
9.323860351133731461e-01
9.333925894077654828e-01
9.366656803133656117e-01
9.381496605776818987e-01
9.404975188337630909e-01
9.444500999704196209e-01
9.484029651896522806e-01
9.502611277818279190e-01
9.487346828741609617e-01
9.430184143066594471e-01
9.416795747183926979e-01
9.646936520285528394e-01
1.011243885497027151e+00
1.201923059814260952e+00
1.183913345508411430e+00
1.154037578973794664e+00
1.136902400347856501e+00
1.130491217197757026e+00
1.127277493823277910e+00
1.126087555207059721e+00
1.126129098879699919e+00
1.126323094535866209e+00
1.125744711338061865e+00
1.123252708483063023e+00
1.119718949743228276e+00
1.118252148727258088e+00
1.125050366124744183e+00
1.149404597540082174e+00
1.188953827258752538e+00
1.474833030484126839e+00
1.468729371479316148e+00
1.464149872674928243e+00
1.468561344795190626e+00
1.473228769574938424e+00
1.472166843603143649e+00
1.468552773975536851e+00
1.466808072264877305e+00
1.467388583568365323e+00
1.468279618864714475e+00
1.467433771027514711e+00
1.464684369098112837e+00
1.461442760172207311e+00
1.457661534963729189e+00
1.456637711359626053e+00
1.464822269531843357e+00
1.529126916257689262e+00
1.530764665069780150e+00
1.543054944999023848e+00
1.564772295531393409e+00
1.583479844197096975e+00
1.592455420547066014e+00
1.594331962768009481e+00
1.594110917977011432e+00
1.594381053627623501e+00
1.594888627278011395e+00
1.594518811593275798e+00
1.591672048901390024e+00
1.582978295922113254e+00
1.566622228164192387e+00
1.550072062174103982e+00
1.544472097331473393e+00
1.257489053472827134e+00
1.243848879397180918e+00
1.223173513131220913e+00
1.214550319711315884e+00
1.214792637850722334e+00
1.217083744365137887e+00
1.218726755650340277e+00
1.219044964018852761e+00
1.219111892507863226e+00
1.220341106683595633e+00
1.222659378576016254e+00
1.223852929896732888e+00
1.223075485279318420e+00
1.223928258341057118e+00
1.235018707625220591e+00
1.258693489421999878e+00
1.060546163939928288e+00
1.040089675911425315e+00
1.005222599422017193e+00
9.842146825594859649e-01
9.768941889021443004e-01
9.736609508438773819e-01
9.717750054184554065e-01
9.729604214726744749e-01
9.770353538279040739e-01
9.824319053861438888e-01
9.881352639931153536e-01
9.932657225249177380e-01
9.972732206856625981e-01
1.003818968772868248e+00
1.022308530425807493e+00
1.054158876981529325e+00
1.130752015547585421e+00
1.112737535081129936e+00
1.084699306376603500e+00
1.074658006896238804e+00
1.080355759360040802e+00
1.088492134272424972e+00
1.093542606810442130e+00
1.096792541682477085e+00
1.099866982527755166e+00
1.103188390431313781e+00
1.106013807367948409e+00
1.106766046682056137e+00
1.104072951933606772e+00
1.101681999292628333e+00
1.111340716695045083e+00
1.136996686433584758e+00
1.243315140884367231e+00
1.232133538445624676e+00
1.220679973515570893e+00
1.227282157785366090e+00
1.241368855406167926e+00
1.249652291721282449e+00
1.251646563759347242e+00
1.250947713474840794e+00
1.251005155776419908e+00
1.252768807657810290e+00
1.253678498028438115e+00
1.249954008292139873e+00
1.240027560236011794e+00
1.230170129660221878e+00
1.232925706473117389e+00
1.252141309526310975e+00
1.248629574543739906e+00
1.237643849979555011e+00
1.224481205222390345e+00
1.226978236344825168e+00
1.238933424336223554e+00
1.248938854005675392e+00
1.254316845657448720e+00
1.256841548879956694e+00
1.257676050744194862e+00
1.258454048066639075e+00
1.260051145591300825e+00
1.260329179317237092e+00
1.255307914898153410e+00
1.248115486017117970e+00
1.250815667073166493e+00
1.268478711129524594e+00
1.309229156920845849e+00
1.304193499468305761e+00
1.304192232100902960e+00
1.321316748697713761e+00
1.346569359871745419e+00
1.365864516216309221e+00
1.375988000215982998e+00
1.381712854058891216e+00
1.386433162646603545e+00
1.390444983855796623e+00
1.391794049390230326e+00
1.386191246380772180e+00
1.370275301350489361e+00
1.350098194657415540e+00
1.340520512563474487e+00
1.348721185660105348e+00
1.157522181848035236e+00
1.144073764634723434e+00
1.126592622060810900e+00
1.126884028046015063e+00
1.138765371198209753e+00
1.147403076374244435e+00
1.147986218077026832e+00
1.144519293392613157e+00
1.142019702666108305e+00
1.144033120715749696e+00
1.148650993850472091e+00
1.150036980735346992e+00
1.144286390417109223e+00
1.136123711444190443e+00
1.139366208269019465e+00
1.159845510234727373e+00
1.046927057747538914e+00
1.026224509283743203e+00
9.911915834944172721e-01
9.688507558703810529e-01
9.584287976313801138e-01
9.523160168261783909e-01
9.487845586446415069e-01
9.481577896346436996e-01
9.485028228169892772e-01
9.484312379833710338e-01
9.485442985632541735e-01
9.495699523176523993e-01
9.511921530952838211e-01
9.576578817867356097e-01
9.784465612173878224e-01
1.013639694257031376e+00
1.046568355203005618e+00
1.025473544550141058e+00
9.903519223611347844e-01
9.697713849711061540e-01
9.648408422134611140e-01
9.669575045131557633e-01
9.692981538547655873e-01
9.702620580194522004e-01
9.707005937185034794e-01
9.717263285646643434e-01
9.731550195953813098e-01
9.735324395052769031e-01
9.717605237208259972e-01
9.729270156182421303e-01
9.873922965920179928e-01
1.017266284260014864e+00
1.122718602065655213e+00
1.111598450794928361e+00
1.099140243354016722e+00
1.101006707668258144e+00
1.108525603995475839e+00
1.112160752128844354e+00
1.111643255277047437e+00
1.110936440965716976e+00
1.111657211038986182e+00
1.112676180278539650e+00
1.112730583388303440e+00
1.110797540019540230e+00
1.105943254230629336e+00
1.101021782975039720e+00
1.105502958785297807e+00
1.124877058726903911e+00
9.607956727313775591e-01
9.352068305764948963e-01
8.903286357333656253e-01
8.590999359066215924e-01
8.442139326733448801e-01
8.388091056390388767e-01
8.375910533819208581e-01
8.377606237024115554e-01
8.383177486726043348e-01
8.388466204992691688e-01
8.390474730648261881e-01
8.380837496277426801e-01
8.377833914348953304e-01
8.464758076821947697e-01
8.738778742291857249e-01
9.176532723538778358e-01
8.842060769802809750e-01
8.548063460447447026e-01
8.024306800358828040e-01
7.651624098844347355e-01
7.459054867209568007e-01
7.356410064914644664e-01
7.291911426320772938e-01
7.262170298851963191e-01
7.265922013810852675e-01
7.306210339099112883e-01
7.361158630470233666e-01
7.406740950383577937e-01
7.466738173741290785e-01
7.618358945424519302e-01
7.967025881248758212e-01
8.476337984624640054e-01
9.097799233245718042e-01
8.906146486221311331e-01
8.610955755593544536e-01
8.482881359457320469e-01
8.496142605873548970e-01
8.548619271335149428e-01
8.594234489695882218e-01
8.626165952708638729e-01
8.649742674894249639e-01
8.660951348192069688e-01
8.651594245231727376e-01
8.616014941852032649e-01
8.564563532520540479e-01
8.560345251400914846e-01
8.707051002938163142e-01
9.019600328385823929e-01
1.039868337696815859e+00
1.021525243845248898e+00
9.952916643620045578e-01
9.878023323802606059e-01
9.940386997468558805e-01
1.000616909501647944e+00
1.001698922673787351e+00
9.993778634750247747e-01
9.964299648427826783e-01
9.935404259756880352e-01
9.895298309766741296e-01
9.833928416331086941e-01
9.745565516060492595e-01
9.669131853934646026e-01
9.709216232091094634e-01
9.916056890148849945e-01
9.394094044400717047e-01
9.174050968999768463e-01
8.801837271423597064e-01
8.583198054182963332e-01
8.524894693243124655e-01
8.532444449275919940e-01
8.554767672831889991e-01
8.582857957639253854e-01
8.605286656564173908e-01
8.610858002859764770e-01
8.597394138712234346e-01
8.569467117698255088e-01
8.532498393003599135e-01
8.571221607438955781e-01
8.817968508697494601e-01
9.241020975505805923e-01
1.205431485069243802e+00
1.194454621647604631e+00
1.180792286526021195e+00
1.180503427269376848e+00
1.188502347516370294e+00
1.197190293670369332e+00
1.203717621980721297e+00
1.206915791233832191e+00
1.206135856072960033e+00
1.202349498625788105e+00
1.197300137214157845e+00
1.191612388122466282e+00
1.183620288748871818e+00
1.174537016835797365e+00
1.172603237552520161e+00
1.183728106393030721e+00
1.310101829290900577e+00
1.304632926074659194e+00
1.304523409615333529e+00
1.324341314905006506e+00
1.355288540415343190e+00
1.379875165768693401e+00
1.390524517251536807e+00
1.392208814522883253e+00
1.391201133646138288e+00
1.388834209281763377e+00
1.381574992157318604e+00
1.364046514225052409e+00
1.337558638450460080e+00
1.314971472919126416e+00
1.310339312039367154e+00
1.324621090161687942e+00
1.399737271627627067e+00
1.393216940976494511e+00
1.389304369606078948e+00
1.401025119430379773e+00
1.421400272145049604e+00
1.438490963158851610e+00
1.448156404071003989e+00
1.453398393071062999e+00
1.456259127785590746e+00
1.456176544626341718e+00
1.452112832959308930e+00
1.441869360844174164e+00
1.423387611605946512e+00
1.401566582110093107e+00
1.389410583637661123e+00
1.394582769265800382e+00
1.467173351177200047e+00
1.466692934103976720e+00
1.476799026238253987e+00
1.503208754102610900e+00
1.534205994246446991e+00
1.557102467440133475e+00
1.567916578298199193e+00
1.570218152403640488e+00
1.568290451762550886e+00
1.565033864092389759e+00
1.560589799753308693e+00
1.551124635138699359e+00
1.533309356205255547e+00
1.510028493139070394e+00
1.491413753766735795e+00
1.487102780506125876e+00
1.453764933342645893e+00
1.445582651965194199e+00
1.436863357438737721e+00
1.439690651811238675e+00
1.448867582724712388e+00
1.457331771502685225e+00
1.462300954473633396e+00
1.464385747821565165e+00
1.464994941321541733e+00
1.465209458425313471e+00
1.464419093567513430e+00
1.459816867211128688e+00
1.450273714002090930e+00
1.439950348283714598e+00
1.437720744474400014e+00
1.448225418481401405e+00
1.507691019315306136e+00
1.502024011904590672e+00
1.497528475246926005e+00
1.504097254239042725e+00
1.516340114169117514e+00
1.526652531395152002e+00
1.532750427957539685e+00
1.537071204089509591e+00
1.542279309396013875e+00
1.547550129200584879e+00
1.549459025892187203e+00
1.545761804091574154e+00
1.536513351709645203e+00
1.525240062159278542e+00
1.519319654733203961e+00
1.523646161856432313e+00
1.950379598278705551e+00
1.971063644730835174e+00
2.029222961229296462e+00
2.111492143986744008e+00
2.196678716513136287e+00
2.263505364479130755e+00
2.301270787761085845e+00
2.315233038222522133e+00
2.317576461695763257e+00
2.314136145487787122e+00
2.299665304488786255e+00
2.260965569115831464e+00
2.192500830879399842e+00
2.107736711130903995e+00
2.028745001335838349e+00
1.974416227109921040e+00
1.763395187606920933e+00
1.767524901865840770e+00
1.785465929889020531e+00
1.824665678728486284e+00
1.882302270479618178e+00
1.941582650316549419e+00
1.981545091952365611e+00
1.997966442309783597e+00
2.001326208709800714e+00
1.997391708104808039e+00
1.979642609078160476e+00
1.936848951146475928e+00
1.874181494998574449e+00
1.814119373751369224e+00
1.774662776448434620e+00
1.758249354248910157e+00
9.194733809906362465e-01
9.020769353297573012e-01
8.783312191478228614e-01
8.877365554095258959e-01
9.173262046935690694e-01
9.325621362451036456e-01
9.351087567943063839e-01
9.354419766792627655e-01
9.362744748139801843e-01
9.372554563503031622e-01
9.372870007208706777e-01
9.334916119767641129e-01
9.173035374510004614e-01
8.905543009628661411e-01
8.881194152134634923e-01
9.186467567578711080e-01
9.326695185654091391e-01
9.107313586865187771e-01
8.786405935679538759e-01
8.858750706490187143e-01
9.217879063970548792e-01
9.424315523120068150e-01
9.467514635833390590e-01
9.473784948474507361e-01
9.480968510855167786e-01
9.487441049650610081e-01
9.479766284728056158e-01
9.419868210759234639e-01
9.199218472632948451e-01
8.864678474177448697e-01
8.852081846418644595e-01
9.233835374014010000e-01
9.687035920143977075e-01
9.401517268858510246e-01
8.934277182226317837e-01
8.894188470848787276e-01
9.296517278129793338e-01
9.616775083342186115e-01
9.715229751295501037e-01
9.735272586334652312e-01
9.747815500692599278e-01
9.761267456813440546e-01
9.755972030574459053e-01
9.640163140375801465e-01
9.258340393521131695e-01
8.809569777353145614e-01
8.857113316407364545e-01
9.373789850042449912e-01
9.905271620560905932e-01
9.635622548897783135e-01
9.153204933912716390e-01
8.974089596287538884e-01
9.256466226893046434e-01
9.681405030201049033e-01
9.931535347663923430e-01
1.000253683134845639e+00
9.993809184641601062e-01
9.960614095440009086e-01
9.868519347219658622e-01
9.592922135668449091e-01
9.127150894842608331e-01
8.840513565599650292e-01
9.065990965041579308e-01
9.608205554020151640e-01
9.636068845646964531e-01
9.579736427721120551e-01
9.590042399161033959e-01
9.786872167386537757e-01
9.984044672948610977e-01
1.005825357601731973e+00
1.006433511797267810e+00
1.005302294165896893e+00
1.004850193867662389e+00
1.005912892856861252e+00
1.007238239394645740e+00
1.005958413748969438e+00
9.970323138583434552e-01
9.768928427681979887e-01
9.579988739615539206e-01
9.580469831967757255e-01
9.782249756301345522e-01
9.702017376200595677e-01
9.679453331632702495e-01
9.875573861378568186e-01
1.009069264946295785e+00
1.017135887053119747e+00
1.017797589141206771e+00
1.017091173064275100e+00
1.017220619089888034e+00
1.019021787444448268e+00
1.020909421627602232e+00
1.019570432555610529e+00
1.009126690663718184e+00
9.867664765787792502e-01
9.691794504086201911e-01
9.744959460338704638e-01
1.015417345485057687e+00
9.996331021204579725e-01
9.840224077413939341e-01
9.970441495703565860e-01
1.021048761149260242e+00
1.033121679918770353e+00
1.035926098968310116e+00
1.035757058355511129e+00
1.034931135507485944e+00
1.034607839178838917e+00
1.034157072121468346e+00
1.031346544714241809e+00
1.019739608347574267e+00
9.989110706728164812e-01
9.914973901796804157e-01
1.011749426919066330e+00
1.057199649819816845e+00
1.038125018195035443e+00
1.011435807763560790e+00
1.009418472088176477e+00
1.026364679528331880e+00
1.042365831592995340e+00
1.050133004944642678e+00
1.052518506856583214e+00
1.052533428735126675e+00
1.051609994763273104e+00
1.049077528326916919e+00
1.041950368469614752e+00
1.026344765085469568e+00
1.008411227081462025e+00
1.009453346108652338e+00
1.036183735282784735e+00
8.528161627340341555e-01
8.421311251435161793e-01
8.319632098496022587e-01
8.398890398134906121e-01
8.509249805468068750e-01
8.531939277847887526e-01
8.520424080437098979e-01
8.521828943646712062e-01
8.530067039654750660e-01
8.538423122771130469e-01
8.547861768656396242e-01
8.548034900440336648e-01
8.516887336038618805e-01
8.452406812415867998e-01
8.465289232440496026e-01
8.646499320860810966e-01
8.983305669679225725e-01
8.872634682647340121e-01
8.769656734426851674e-01
8.861001162360591099e-01
8.989590490838026415e-01
9.021523641167853436e-01
9.009982733654208209e-01
9.007342058146284858e-01
9.017957383234961322e-01
9.034762054878889836e-01
9.046742403957422907e-01
9.034769405478912940e-01
8.980582125342857491e-01
8.895094490096669970e-01
8.903455382104966676e-01
9.087922708411193540e-01
1.006455339354334066e+00
9.919572710948273420e-01
9.768351953719204284e-01
9.845720762042671215e-01
1.000102228618087175e+00
1.006702354257010157e+00
1.005831832507993795e+00
1.003708828992956548e+00
1.002978380988590379e+00
1.003398536641913585e+00
1.003217869361964665e+00
9.995747040475040368e-01
9.896574376619458047e-01
9.772034684225601175e-01
9.783181625832015893e-01
1.001009782946792326e+00
1.050225084555194144e+00
1.031406637525706271e+00
1.004472437576241273e+00
9.988981005349193421e-01
1.009304605288142032e+00
1.018913322774736452e+00
1.021588780524631757e+00
1.020772016325436571e+00
1.019524200817286452e+00
1.019237669569687865e+00
1.019132304867303773e+00
1.013816600881275232e+00
9.996826473774358401e-01
9.872022160991721362e-01
9.963066585898059380e-01
1.028599957982667901e+00
7.741883247033747306e-01
7.590756275159802335e-01
7.382618459495073893e-01
7.370080869056883088e-01
7.447336737046631461e-01
7.471628347619514443e-01
7.460181985819263062e-01
7.445050627625013906e-01
7.437159207933325966e-01
7.439460156154976689e-01
7.437853036520943872e-01
7.412954839390892836e-01
7.359949887990892003e-01
7.309888426623871727e-01
7.388162483404661085e-01
7.646536837482020843e-01
7.576680213123927476e-01
7.367979216063610393e-01
7.058116758607120289e-01
7.003196217919682720e-01
7.099224851856139606e-01
7.145275628188116901e-01
7.145089566004053649e-01
7.143142981140742087e-01
7.152355479771758118e-01
7.175517872649451734e-01
7.192403980816390874e-01
7.163453349248821711e-01
7.083662426711895277e-01
7.019473729837898412e-01
7.152485526043317332e-01
7.523072058306194965e-01
7.909841439647029571e-01
7.608699868845215653e-01
7.148158954902966711e-01
7.016346387626851699e-01
7.126272009657916851e-01
7.203272928318493751e-01
7.205323228001843106e-01
7.203208225232518025e-01
7.221316828947702549e-01
7.256467945220222981e-01
7.279653042593092760e-01
7.228669119392285847e-01
7.091403092403353314e-01
6.994486237735788592e-01
7.195226651463112466e-01
7.700882130183647201e-01
8.416798795607917105e-01
8.134931199132218183e-01
7.683773470871196887e-01
7.498226928563416216e-01
7.561575712439877472e-01
7.647520181400135897e-01
7.660438341931823381e-01
7.657191338843797324e-01
7.681356421910228160e-01
7.723140851558214504e-01
7.728659566975202289e-01
7.653247928608624129e-01
7.507792774917450007e-01
7.448033114608615390e-01
7.715312534055391858e-01
8.262673247203882188e-01
6.868800810685272706e-01
6.660486978388775459e-01
6.346469965483997333e-01
6.261842834700954707e-01
6.312099314781182136e-01
6.335596955624056559e-01
6.340534286221972682e-01
6.363282262514817766e-01
6.391177247356227831e-01
6.396333909502203152e-01
6.380434455250986181e-01
6.349823917561142617e-01
6.297135418034298660e-01
6.249841131037430220e-01
6.377746159734922760e-01
6.734585299960839100e-01
6.960496770695802082e-01
6.713190602266269069e-01
6.320661257424415869e-01
6.177724343276856933e-01
6.212495975163534467e-01
6.237983654183204552e-01
6.242228918367679347e-01
6.263214432057581105e-01
6.285623271981670701e-01
6.287000862968479264e-01
6.273778185007270469e-01
6.248041408136977282e-01
6.199660381001125264e-01
6.171178095957811083e-01
6.366268909611014770e-01
6.820587388414400820e-01
7.565988614084787622e-01
7.220289374105350877e-01
6.624090392023663787e-01
6.314840534936739802e-01
6.289566791243000887e-01
6.310564177703634758e-01
6.320665928906336051e-01
6.339589678509577331e-01
6.354834849276846942e-01
6.354852843083221847e-01
6.347234519685035492e-01
6.324346387910854128e-01
6.262398561457719337e-01
6.275692109578169253e-01
6.644241973659168465e-01
7.322017937024074552e-01
8.059786214148464412e-01
7.683992098698605444e-01
6.989080270886467439e-01
6.512045357419541380e-01
6.361409637689623420e-01
6.383091723051670385e-01
6.444145383392266835e-01
6.521031319257486469e-01
6.589092408889175578e-01
6.622178890497457671e-01
6.610370074527340822e-01
6.526204153833848887e-01
6.402233548458123868e-01
6.461468449760585653e-01
6.955381902989792309e-01
7.729152592738027794e-01
7.706535046663135491e-01
7.561494431352505652e-01
7.367892865716636486e-01
7.358604112767916927e-01
7.430361630517061666e-01
7.463490755395557619e-01
7.476244645400778044e-01
7.489029726048399560e-01
7.495239350113994670e-01
7.497515357892925447e-01
7.503364786860727831e-01
7.494691748487635197e-01
7.443961412118739185e-01
7.361849949584474695e-01
7.394847599606068078e-01
7.627211194529035510e-01
7.665354303223177457e-01
7.479355447578376337e-01
7.214024709426419824e-01
7.169941898395008062e-01
7.245453931304922657e-01
7.287388641122906074e-01
7.309596576208710061e-01
7.335760357393540376e-01
7.352091342250886008e-01
7.352978456304070098e-01
7.350937075932670872e-01
7.330564892201700822e-01
7.263523685190433898e-01
7.174633352745880543e-01
7.247166461859322339e-01
7.559521183878067374e-01
7.968777212093434148e-01
7.656183616648639667e-01
7.142702342085508471e-01
6.914244335037565969e-01
6.934017764376642079e-01
6.970065622762616764e-01
6.980225951198634204e-01
6.983027820413371112e-01
6.977017999982736418e-01
6.980670149149279524e-01
6.987821300041522354e-01
6.956418495508303046e-01
6.884198035893971390e-01
6.868877310886549736e-01
7.138041801323722346e-01
7.695233180664340367e-01
8.467042248923306591e-01
8.110430922581602919e-01
7.459533057036181747e-01
7.018359688353703607e-01
6.855294922193940765e-01
6.808695449486240614e-01
6.786572921487945553e-01
6.785111531628231774e-01
6.799989136322942551e-01
6.822020756058165825e-01
6.835084470352191799e-01
6.811932104678425359e-01
6.760330078382963404e-01
6.824524201957213876e-01
7.233929591443185592e-01
7.909968499027657529e-01
7.990433307929357687e-01
7.866439814700268984e-01
7.715214344518888101e-01
7.729092500180514413e-01
7.798776066028740850e-01
7.820346415580090582e-01
7.824217666136200622e-01
7.834223363183083766e-01
7.834723416739387547e-01
7.823465168870940012e-01
7.808339594369627656e-01
7.780726349671562847e-01
7.720820121051157336e-01
7.649014616052060012e-01
7.687540150045774068e-01
7.906034258858312125e-01
8.213436521467092355e-01
8.078198712073368926e-01
7.907787470963539844e-01
7.912584205989483532e-01
7.987067537419444418e-01
8.019888560753285489e-01
8.035069621218560165e-01
8.052522894359442907e-01
8.050554712228691345e-01
8.032688902203043435e-01
8.015681848182624192e-01
7.990216430355454591e-01
7.925968807940552141e-01
7.840458657994170411e-01
7.871922587693263029e-01
8.100764852312812847e-01
9.034279851011099982e-01
8.861752586728407488e-01
8.628666528870952979e-01
8.600716130270602555e-01
8.689960099308755570e-01
8.765326757978278982e-01
8.818317586322121926e-01
8.855547681887910860e-01
8.870698741448871383e-01
8.865860903596267661e-01
8.847559218767556688e-01
8.813034944042485996e-01
8.735178007347120799e-01
8.629895705882969503e-01
8.648456803595970799e-01
8.890044215331669442e-01
9.544911084321567873e-01
9.311928183192278441e-01
8.943628892138854036e-01
8.782288024584125052e-01
8.811292051106890399e-01
8.879503129536272521e-01
8.911422340142104437e-01
8.909283134126159132e-01
8.899207176840671085e-01
8.897670808150249799e-01
8.900057015952379524e-01
8.879025289633770690e-01
8.821503705518262128e-01
8.799817757661851925e-01
8.976281166315406290e-01
9.360632916858935282e-01
8.487941890144345969e-01
8.352464934371457428e-01
8.154192188425444243e-01
8.103681785718308550e-01
8.152271996248432462e-01
8.211170504902565170e-01
8.255705414234947304e-01
8.279787087723763372e-01
8.284714395077205085e-01
8.286133429251244520e-01
8.272442704728762974e-01
8.226380987218309127e-01
8.149580346309851508e-01
8.066494386990347154e-01
8.084410776951402866e-01
8.271604024489930262e-01
8.637715044796626662e-01
8.490928772560909499e-01
8.275536795034598159e-01
8.214560563659243364e-01
8.253526392283306867e-01
8.305486858126742700e-01
8.354786659883529643e-01
8.393281612219878340e-01
8.409615636779914638e-01
8.415719301818808118e-01
8.404482440850830072e-01
8.359999405594916722e-01
8.283360517014201063e-01
8.198270445245106064e-01
8.219908751367628330e-01
8.422007365364941878e-01
9.307601922201738098e-01
9.139900011341286490e-01
8.916299087316700289e-01
8.887659878682775405e-01
8.959732145281085192e-01
9.012967338008520679e-01
9.046448895213687891e-01
9.077557791317394376e-01
9.098479580298637348e-01
9.113938756437041100e-01
9.123298166206481596e-01
9.103898176649819485e-01
9.021002201031486090e-01
8.889502238510049725e-01
8.865499086310905108e-01
9.062030084681185205e-01
9.996077019879622272e-01
9.807136497250983354e-01
9.529111391137727871e-01
9.449511328660753495e-01
9.514708382702462552e-01
9.577051683171202701e-01
9.588806400608046454e-01
9.580773827792795627e-01
9.583505884691866372e-01
9.607235315550327615e-01
9.629262187204562506e-01
9.615595086954589199e-01
9.540708108838938939e-01
9.452738300768310786e-01
9.503953785359253725e-01
9.760146443129580351e-01
9.699481734403823108e-01
9.641047638670331432e-01
9.624268564031832618e-01
9.739809763304733137e-01
9.845000795659840653e-01
9.862379870690910488e-01
9.837802906484144350e-01
9.811693118627559107e-01
9.790291094789632664e-01
9.779558179531993023e-01
9.772716592226908805e-01
9.755036554017231243e-01
9.710301447348269610e-01
9.623956458297916461e-01
9.555321278733184265e-01
9.606914169041915752e-01
9.514617998550861655e-01
9.424043606068495116e-01
9.349854526547684008e-01
9.429816528706500556e-01
9.523533796939079865e-01
9.540952978124587203e-01
9.521024881952034891e-01
9.497563136632098946e-01
9.476466116130483064e-01
9.470271411071643497e-01
9.470828127627864967e-01
9.456775984649096189e-01
9.411427327578261171e-01
9.325622737644517768e-01
9.279235188654623157e-01
9.379477164527694200e-01
9.687627366051179134e-01
9.516640224063215303e-01
9.302605173492882740e-01
9.306478003018553435e-01
9.402614111768691219e-01
9.437057292981687606e-01
9.425345175624000316e-01
9.407560696336535466e-01
9.393160578089901902e-01
9.398676921142965490e-01
9.413244809212413244e-01
9.403631283335218694e-01
9.326615503064183965e-01
9.183687785434290207e-01
9.130478340606601462e-01
9.305635417721369596e-01
1.014195170446098304e+00
9.902323517068257752e-01
9.517215928974921413e-01
9.357618965507573661e-01
9.412957731928972560e-01
9.498986454714570815e-01
9.538130018093263773e-01
9.554526732520549626e-01
9.571333024978277981e-01
9.597835513217460868e-01
9.617660026555687747e-01
9.593129215702220769e-01
9.505028612159608370e-01
9.428740234305307277e-01
9.534919067760313505e-01
9.868517268866434655e-01
1.011934936938630125e+00
1.005247847751407075e+00
1.001101930940032192e+00
1.008875578288900732e+00
1.017323373407690079e+00
1.020053896639514290e+00
1.019710028782325084e+00
1.018920998985428206e+00
1.019291658756962482e+00
1.021293705361912885e+00
1.022893209842733908e+00
1.021797579447897508e+00
1.016831764373974822e+00
1.006491146438567075e+00
9.967028251426511831e-01
9.990121584679396705e-01
1.030198008420069256e+00
1.023879938523216016e+00
1.021381872699206106e+00
1.031240436797470128e+00
1.040417880866699063e+00
1.042375480362004447e+00
1.041057470718925071e+00
1.039538989447066575e+00
1.039420792877223887e+00
1.041204889830812830e+00
1.042755385524102518e+00
1.041821200683274551e+00
1.037147348522952095e+00
1.026414353913239097e+00
1.015242977304732008e+00
1.016401671662606310e+00
1.123555866355711252e+00
1.116781883342610637e+00
1.114653364746121200e+00
1.126279931006912260e+00
1.137319978008432653e+00
1.139917794980963350e+00
1.139108293110604020e+00
1.137919651431751111e+00
1.137125920752370511e+00
1.137550318126894666e+00
1.137590798027211747e+00
1.136421307729108543e+00
1.131916663126539380e+00
1.117983391540786853e+00
1.100271267019202304e+00
1.096878568121131492e+00
1.198658644539986273e+00
1.188431354763438641e+00
1.179726866824472920e+00
1.189431054845744518e+00
1.206662812683131802e+00
1.216994540493615551e+00
1.219047046051138006e+00
1.217092824567525211e+00
1.213430598648127745e+00
1.209699275699174681e+00
1.207806516411765285e+00
1.204911839269793949e+00
1.194098237905730553e+00
1.175579418098236406e+00
1.162346118970072784e+00
1.167085015347336663e+00
1.169250965902358885e+00
1.168013348892810832e+00
1.174572802889015666e+00
1.189241495794613579e+00
1.200199268899985405e+00
1.204237002047194416e+00
1.205188625949962899e+00
1.204655000076489291e+00
1.203655777353350498e+00
1.203011154313376796e+00
1.202798202658791116e+00
1.201819161304299000e+00
1.197078656541940012e+00
1.184888667239498927e+00
1.167442870558891732e+00
1.157943540389758219e+00
1.179599890723500355e+00
1.178386920511742764e+00
1.185294285200314990e+00
1.200419410814003829e+00
1.211665874930378584e+00
1.216139942685054987e+00
1.218076334993142273e+00
1.218921036655591150e+00
1.219105286886940309e+00
1.219395661132218533e+00
1.219873202191529060e+00
1.219043001902081480e+00
1.213504964059990421e+00
1.199087153468608946e+00
1.178722275926090024e+00
1.167174025028679507e+00
1.235596959078157919e+00
1.235741064740994322e+00
1.248235370901332741e+00
1.271662771845271767e+00
1.289323532436379427e+00
1.296662981270374049e+00
1.300284365917145246e+00
1.303595377616081796e+00
1.306552985606948658e+00
1.309138992090211229e+00
1.310396407000138153e+00
1.308734055998901358e+00
1.300014763927885619e+00
1.277919397840606708e+00
1.247704302490261652e+00
1.229988545620995799e+00
1.298976913560609958e+00
1.293633548212912210e+00
1.295705443633691001e+00
1.313873751321395833e+00
1.334732444336586665e+00
1.348237587493199330e+00
1.355807019698916482e+00
1.360602396029551686e+00
1.362924928740633534e+00
1.363007439658832975e+00
1.361892655115324757e+00
1.357687284440165731e+00
1.343804317651620117e+00
1.318776005874483515e+00
1.295612525053562614e+00
1.289686097634187512e+00
1.230122527050098169e+00
1.227467235387447841e+00
1.230368757526751011e+00
1.240562722523348649e+00
1.248706446129694836e+00
1.252604611526282996e+00
1.256083207536319968e+00
1.260463588659750167e+00
1.265345568561835332e+00
1.269469742252300914e+00
1.272431123345562520e+00
1.274444433111180608e+00
1.272884111939388996e+00
1.262011801632873631e+00
1.242391588818976489e+00
1.228710872628957285e+00
1.244525917489849753e+00
1.241801090259595730e+00
1.244949736629406889e+00
1.255648858310011606e+00
1.264127758569431270e+00
1.268235260416860744e+00
1.272042052460880868e+00
1.276916815515657389e+00
1.282522220298255355e+00
1.287291236769805725e+00
1.290556784902881393e+00
1.292406252762515972e+00
1.290123811278617971e+00
1.278032966598179332e+00
1.257087060621190577e+00
1.242555897520501329e+00
1.315166544907538704e+00
1.311102537410597568e+00
1.312959681579938254e+00
1.323997273433238364e+00
1.333418189720838143e+00
1.337235035724970045e+00
1.340116495689232190e+00
1.344016314227987285e+00
1.348480644521486527e+00
1.352889832223085786e+00
1.356622308079059369e+00
1.359041878402238224e+00
1.355533164597812812e+00
1.340699448395149318e+00
1.317781307290359916e+00
1.303752715503299520e+00
1.353033351618717628e+00
1.343651173992129078e+00
1.336032034376863464e+00
1.342233953370243427e+00
1.354225966984753171e+00
1.363584233155924919e+00
1.368267885415147544e+00
1.369161196361078359e+00
1.367691524533610981e+00
1.365384061115548775e+00
1.362964211408091320e+00
1.359557064786588443e+00
1.352122224101890646e+00
1.340153622013097623e+00
1.331876055777508228e+00
1.336265981187364726e+00
1.192086718376045518e+00
1.185216059486607687e+00
1.180237772367757509e+00
1.184323570218504207e+00
1.188973141779081866e+00
1.190343342960139106e+00
1.190287898488880725e+00
1.189119709802954672e+00
1.188076386073108059e+00
1.189162764194473310e+00
1.191152455323307935e+00
1.192079494271000017e+00
1.189408967754338686e+00
1.183164247182344919e+00
1.177858407208826952e+00
1.181500028375956690e+00
1.204740842280987101e+00
1.197570166847236717e+00
1.192261898752766669e+00
1.196465861552180820e+00
1.201300207947738619e+00
1.202580576715377214e+00
1.202323635397161139e+00
1.201059861115078897e+00
1.199948464561690464e+00
1.201117308441679743e+00
1.203423410614744782e+00
1.204809868483268653e+00
1.202408303238899467e+00
1.195793184599620362e+00
1.189591479167736887e+00
1.192367041811763118e+00
1.275834390293003828e+00
1.267656831914018234e+00
1.262048149471218572e+00
1.267281791437285365e+00
1.274397177646788393e+00
1.278879447133641323e+00
1.281425649169611880e+00
1.282587998842848576e+00
1.284708386080411602e+00
1.288539461818661191e+00
1.292004731380677729e+00
1.293857640344872939e+00
1.290540417742342294e+00
1.280002032469998774e+00
1.268579671553776711e+00
1.268776537166820706e+00
1.354032383127832251e+00
1.340930903488853243e+00
1.326114884581350850e+00
1.325220738427937084e+00
1.330405173890896631e+00
1.333945183416304969e+00
1.335428514550381474e+00
1.336608135204239378e+00
1.337968016499549107e+00
1.339387511005887488e+00
1.341069156274355523e+00
1.341236268569233392e+00
1.336634246895216149e+00
1.328170598461073659e+00
1.325046576271351473e+00
1.336852812069530438e+00
1.131835819557647227e+00
1.126454308477545796e+00
1.124729524978518747e+00
1.133321324317740242e+00
1.141805622830960765e+00
1.146054084567162956e+00
1.148109517930492540e+00
1.148735388271235003e+00
1.150167526998963297e+00
1.152824317510666052e+00
1.154268738433746666e+00
1.153144340312899585e+00
1.148508490854180719e+00
1.139512739365223348e+00
1.131327779900457964e+00
1.133709079140808651e+00
1.137296489275092748e+00
1.131903033176770323e+00
1.130459574153031443e+00
1.139596722606343038e+00
1.148307971181580678e+00
1.152179446756745884e+00
1.153456483713245495e+00
1.153083998026881218e+00
1.153679282542693585e+00
1.156156386089238541e+00
1.157884120898709845e+00
1.157110910243701607e+00
1.152539489780345372e+00
1.143476884938662730e+00
1.135458186532512626e+00
1.138393711137696052e+00
1.178949781078404202e+00
1.170817190756113568e+00
1.166346987400839863e+00
1.174607779116508599e+00
1.183269000841814078e+00
1.187507515276034598e+00
1.190627441997822666e+00
1.192796957602177077e+00
1.194784421281148479e+00
1.197797151332961052e+00
1.200517919337457107e+00
1.200517322460326275e+00
1.194759626639017025e+00
1.183192039346227853e+00
1.173888599419766088e+00
1.179487726891802479e+00
1.257043807983293293e+00
1.243345815952297650e+00
1.227188152753662775e+00
1.225520058809064006e+00
1.229555588291495694e+00
1.230753179618787163e+00
1.231909536192265842e+00
1.235486246029257495e+00
1.240422175445461850e+00
1.245263277212879771e+00
1.247950624889595517e+00
1.247068767598165762e+00
1.241551036426209009e+00
1.234065772502643155e+00
1.234450369757490229e+00
1.250814923772180842e+00
1.063789638789095271e+00
1.054933928125608711e+00
1.046003247712245843e+00
1.049741997748247613e+00
1.057382316121117105e+00
1.061838972526277569e+00
1.063384626481137740e+00
1.062774516894908761e+00
1.061820149246294864e+00
1.061827817015318809e+00
1.061765357227654638e+00
1.058648658239235818e+00
1.052171154586617696e+00
1.045580282366878055e+00
1.046976527810809854e+00
1.062894266788446895e+00
1.071075132340937985e+00
1.062428153574508150e+00
1.054233990812251998e+00
1.058696245123311064e+00
1.066598518645944793e+00
1.070945599533209558e+00
1.072331875021985015e+00
1.071934493996573812e+00
1.071474256199707931e+00
1.071969067873482784e+00
1.072064684857162664e+00
1.068642788807121047e+00
1.061713009077912329e+00
1.054923433347570993e+00
1.056297473382586727e+00
1.072449159248280548e+00
1.081036330319377958e+00
1.069301679116904547e+00
1.057056083447204475e+00
1.060451724647211824e+00
1.069150869922814051e+00
1.074843688524157237e+00
1.077811197373154117e+00
1.078428287237412686e+00
1.078202382110727831e+00
1.078078300094833963e+00
1.076921693022738546e+00
1.072277784440887505e+00
1.064145443064492547e+00
1.057266520664572829e+00
1.061199732158055076e+00
1.082805605681361749e+00
1.108635342691164150e+00
1.087374305808373354e+00
1.056466972201142607e+00
1.046488896339761832e+00
1.051177443713547710e+00
1.055925471771908875e+00
1.056328506378989562e+00
1.053700729421743532e+00
1.052177106946955876e+00
1.052812313636723340e+00
1.052419279499545057e+00
1.048866175778324639e+00
1.044481554198975148e+00
1.048902174487376104e+00
1.073446630165503457e+00
1.116314422220262559e+00
1.117010304180795499e+00
1.112796923217372669e+00
1.112981075158725686e+00
1.121607600775808233e+00
1.128906860929976386e+00
1.131935380987468598e+00
1.134121225663310861e+00
1.135705659403700052e+00
1.135426693391293984e+00
1.134301021724117398e+00
1.133403901932264590e+00
1.131664146736444554e+00
1.127493800178555938e+00
1.119516200272337780e+00
1.111534459021313870e+00
1.113199563098273615e+00
1.121311699019078789e+00
1.116770438115488151e+00
1.116489265338175718e+00
1.124933052725499927e+00
1.132181128727308916e+00
1.135106777937921807e+00
1.137153180892907400e+00
1.138604982431689727e+00
1.138128657921305908e+00
1.136812289211018845e+00
1.135915291863648813e+00
1.134341045061817654e+00
1.130532596296216274e+00
1.123223060077236601e+00
1.116121311496679702e+00
1.118610124164555630e+00
1.114744386057979764e+00
1.107229100684040901e+00
1.102706693298395324e+00
1.109391098204726811e+00
1.116367452174047648e+00
1.118945765741949261e+00
1.120790610985354929e+00
1.122424648873834085e+00
1.122311762243017208e+00
1.120907080564213398e+00
1.119484252639294741e+00
1.116908577219651422e+00
1.111289529778352714e+00
1.103709324592888175e+00
1.100699753483457277e+00
1.110805723909703335e+00
1.161409899284048253e+00
1.149084310426696565e+00
1.135879576910352462e+00
1.137961863231324866e+00
1.146824260478621627e+00
1.154045598306630227e+00
1.158758214264880015e+00
1.160986992886517077e+00
1.160604764937088973e+00
1.159136848329671343e+00
1.157399857583284231e+00
1.154176237399179294e+00
1.147557929110417207e+00
1.139666039578997925e+00
1.140111336652195773e+00
1.157196065874498636e+00
1.110986565873136600e+00
1.112782865695238543e+00
1.129416455030879396e+00
1.156429998496083966e+00
1.177107640414767786e+00
1.188323293691834426e+00
1.195133483507226257e+00
1.198398533699332580e+00
1.198230552159187168e+00
1.196937423339224038e+00
1.195523707078188336e+00
1.192161195306137289e+00
1.181577289338143100e+00
1.158939157361706718e+00
1.130420264771938355e+00
1.115521778727867952e+00
1.118281759583839685e+00
1.119927040499277160e+00
1.136439509666659298e+00
1.163804964704328260e+00
1.184966793282801856e+00
1.196432875614484415e+00
1.203316166543194843e+00
1.206628118356214197e+00
1.206410092574838666e+00
1.204785091639624106e+00
1.202913407962911352e+00
1.199129900462533760e+00
1.188264175095526953e+00
1.165525376089088905e+00
1.137007486775473142e+00
1.122248246158244367e+00
1.157366044974614372e+00
1.158958494084562751e+00
1.177362058252639843e+00
1.209543932636395480e+00
1.235675831717716777e+00
1.249586223838037302e+00
1.256501098904538205e+00
1.259180239869782225e+00
1.258608690931284579e+00
1.256522667532610438e+00
1.253660545206760624e+00
1.248776731614636759e+00
1.236371767963622803e+00
1.210094384133040935e+00
1.177212226915086202e+00
1.159864051969529575e+00
1.237304925084854457e+00
1.236234682017568254e+00
1.250181823651716595e+00
1.282747582131002817e+00
1.314921005943620491e+00
1.334644027106604458e+00
1.343933412924103621e+00
1.346631153987690510e+00
1.344849756745876812e+00
1.341906232993306247e+00
1.339236478860075019e+00
1.333905645995742795e+00
1.317069386904858419e+00
1.284820999798422347e+00
1.252656919102957733e+00
1.241606216029010001e+00
1.063068977337159771e+00
1.067083399041121261e+00
1.090459315848629984e+00
1.126467712899711371e+00
1.153846532376622491e+00
1.166557369406970412e+00
1.171101805609152224e+00
1.171976695927315237e+00
1.171417925637762147e+00
1.170981555562557341e+00
1.169589555383950819e+00
1.165002272524731541e+00
1.152878539231730670e+00
1.127189821044229934e+00
1.092098006969978607e+00
1.070015567543763702e+00
1.070474634801896086e+00
1.074476914499215896e+00
1.098101425722301183e+00
1.134896999613476121e+00
1.163125507054772800e+00
1.176382213684592948e+00
1.181160246830827321e+00
1.181983535977114919e+00
1.181158715936471371e+00
1.180446532537476667e+00
1.178934967484064567e+00
1.174124626401314320e+00
1.161255051132223270e+00
1.134351184888757746e+00
1.098347861026284455e+00
1.076074086925398854e+00
1.086201566475954339e+00
1.090935689720473833e+00
1.120913718677889470e+00
1.171190255055886587e+00
1.213229536573820599e+00
1.234183590366792149e+00
1.241658067482396266e+00
1.243099547584164188e+00
1.241869889477326794e+00
1.240868848801301327e+00
1.239691536890751511e+00
1.234660742151514112e+00
1.215733368883827437e+00
1.174337780394975939e+00
1.122825749944451168e+00
1.092525779096617633e+00
1.155103168054586238e+00
1.153221669699645346e+00
1.170461939901752846e+00
1.215030477787108820e+00
1.262962326142088587e+00
1.293119121347125144e+00
1.305432591778874496e+00
1.308003691249152389e+00
1.306108275942184926e+00
1.302354230405725843e+00
1.296243094442444344e+00
1.284990401057223508e+00
1.260008654197005029e+00
1.217759159208911202e+00
1.176176403334439957e+00
1.159803369685145080e+00
9.109040805759922588e-01
9.061646309819393341e-01
9.153305570558202264e-01
9.447910842946287691e-01
9.720281673948786283e-01
9.857755887914158022e-01
9.907697966588532301e-01
9.917875441963549532e-01
9.909949341071178086e-01
9.906083276582507979e-01
9.913593122342165831e-01
9.895481814672791865e-01
9.778193748716409450e-01
9.526852871727998773e-01
9.253748183882819500e-01
9.185695536874951550e-01
9.231014359234372968e-01
9.166455081301335683e-01
9.227301908073164416e-01
9.502057543768889225e-01
9.771271237535062992e-01
9.912981112894629909e-01
9.972632207267629889e-01
9.994026243111265861e-01
1.000237164291819525e+00
1.001480563876601115e+00
1.002495619991856879e+00
9.997282820007955539e-01
9.863768206239554859e-01
9.599989265479790257e-01
9.343804630882803774e-01
9.319216867489293898e-01
9.665150310229678743e-01
9.508183501353230094e-01
9.352034731840980220e-01
9.434660667611568519e-01
9.624773531359805956e-01
9.757515227485186182e-01
9.823738287526770918e-01
9.859933116920984730e-01
9.883383194745415379e-01
9.908077818261067371e-01
9.916021204581885184e-01
9.866080785358424254e-01
9.709440946553794527e-01
9.490770330091817808e-01
9.416525649350888649e-01
9.616552743073599752e-01
7.139537948366720954e-01
6.941862046346154447e-01
6.723502530564369195e-01
6.757225257808526786e-01
6.878851247022476079e-01
6.940903971555738572e-01
6.954847902846312824e-01
6.942323851148716196e-01
6.935302543695043287e-01
6.948788905413396666e-01
6.948028342849402739e-01
6.907665533122554491e-01
6.821815707493419367e-01
6.756580157564622269e-01
6.870707500326347361e-01
7.236450176164552772e-01
7.347997443246172544e-01
7.129232690224169833e-01
6.896179574803162904e-01
6.960518126686033868e-01
7.124856723079935339e-01
7.207772854476236501e-01
7.222004481806404419e-01
7.202306548184645996e-01
7.192311335883584400e-01
7.211880690350508383e-01
7.220852024374716516e-01
7.179987648826465785e-01
7.085138744818124668e-01
7.001639649891052697e-01
7.097367581775624323e-01
7.474543550343587528e-01
8.244630733601657768e-01
7.998183023008447190e-01
7.703874962813299643e-01
7.757589548114407485e-01
8.016753221133853247e-01
8.206429653729507834e-01
8.254242482759012178e-01
8.232911457096827590e-01
8.215991041192984845e-01
8.231694849318145213e-01
8.253451989642499598e-01
8.218650177455749661e-01
8.060248196478845273e-01
7.846434016519775456e-01
7.827994169219423259e-01
8.119242904590808774e-01
6.683843955630539568e-01
6.403137014596257393e-01
6.091671130491372876e-01
6.233446693607682665e-01
6.542502271752003162e-01
6.715105465406044916e-01
6.781108464063405616e-01
6.784466098027081005e-01
6.762535037393784254e-01
6.751488082473708907e-01
6.751959644362500734e-01
6.700869127597518515e-01
6.513835981868233427e-01
6.223062818624186532e-01
6.144704962197895526e-01
6.506334061163225879e-01
6.809744381368099120e-01
6.451462291914252800e-01
5.972733890333947748e-01
5.982060893977395599e-01
6.255547587666828724e-01
6.436399302512928466e-01
6.498248149691758790e-01
6.490073080552741791e-01
6.462031376837831242e-01
6.453091605842872225e-01
6.459862814369968786e-01
6.411719416800427673e-01
6.237171000859601522e-01
6.029295708271764642e-01
6.136803236290602204e-01
6.684325322016267945e-01
7.234138679122695814e-01
6.778693792862819922e-01
5.990417307322564167e-01
5.587785417378287045e-01
5.636004700667176515e-01
5.792386377977292167e-01
5.882204428457512568e-01
5.901225645644080364e-01
5.881657975489654744e-01
5.849530396383048059e-01
5.810882722746902873e-01
5.733547607823146208e-01
5.613387611381596143e-01
5.678692736261242713e-01
6.235849649504870973e-01
7.123164530012626727e-01
8.546449437030323448e-01
8.189777422736429502e-01
7.538856861120400987e-01
7.149296825921951370e-01
7.060038949014461052e-01
7.047962117208853572e-01
7.024151957369487720e-01
6.981102828866262433e-01
6.955331624417132597e-01
6.956710786733818486e-01
6.956483561492577961e-01
6.929402254291651131e-01
6.920475064117984632e-01
7.105097025487079332e-01
7.668241075929466133e-01
8.457194739411671991e-01
8.196176199551810093e-01
7.643741462077870974e-01
6.493459515907448187e-01
5.602276284148497432e-01
5.314269960645096047e-01
5.279357472265193696e-01
5.253328102052362558e-01
5.200944049888190923e-01
5.163410520988105379e-01
5.154032163958686130e-01
5.148287807438239883e-01
5.114559922803290082e-01
5.127346436427362431e-01
5.548542133060893056e-01
6.634590188235637287e-01
7.894832944504115435e-01
8.927464592002729571e-01
8.355495280318034901e-01
7.129016412694486604e-01
6.075747181120848550e-01
5.841435376137998903e-01
6.271307179661520514e-01
6.648160336685726701e-01
6.776709427618778925e-01
6.785415248163082502e-01
6.739413035069541369e-01
6.607951303303697399e-01
6.242060412271777103e-01
5.794408111971003361e-01
6.029853517093124449e-01
7.124402811223982113e-01
8.388778205306068880e-01
9.002228625876681489e-01
8.572150794401728335e-01
7.659484078049482170e-01
6.927486826240824014e-01
6.659066213445743454e-01
6.619304623846627988e-01
6.605753089216888085e-01
6.571311037931987231e-01
6.532857637453362010e-01
6.515553436052792247e-01
6.513689436702779778e-01
6.498071660478133005e-01
6.525753080558098773e-01
6.874979861926002744e-01
7.761710621697101020e-01
8.798871968436058344e-01
9.557481026154521775e-01
9.117638203837835631e-01
8.187883856024472662e-01
7.421065490593998781e-01
7.112206324989134298e-01
7.061760312843802234e-01
7.058689351229380238e-01
7.042142355637364126e-01
7.023172567812828726e-01
7.006413110446405579e-01
6.983574844613731347e-01
6.950874225888633573e-01
6.987360971196061588e-01
7.393453173153750058e-01
8.345138419112061445e-01
9.418724458472289562e-01
1.030032514640833119e+00
9.856641426320350563e-01
8.925414770410270426e-01
8.131228494961827424e-01
7.789307038586678056e-01
7.776357556693854756e-01
7.829044792499546546e-01
7.839888727308998995e-01
7.817540944044114593e-01
7.788000107742120148e-01
7.746685755767911408e-01
7.700796837077720225e-01
7.777212587292560153e-01
8.266906537283229550e-01
9.235236660812087273e-01
1.027413602388583591e+00
1.048825437962212170e+00
1.012170620252724973e+00
9.338534177467134878e-01
8.680288660420472091e-01
8.390577796141669431e-01
8.313576743902789667e-01
8.285265757126032415e-01
8.253476397116701335e-01
8.218223994750014638e-01
8.193915062308890773e-01
8.185137883459984165e-01
8.183194927864949619e-01
8.240817668280707720e-01
8.557125139244562417e-01
9.282006026752914751e-01
1.012858029680343552e+00
1.086738548781627456e+00
1.049444120986456008e+00
9.695642101940147306e-01
9.008576400100514192e-01
8.683440317473363201e-01
8.587494957406035523e-01
8.554463924974918809e-01
8.526469393116211659e-01
8.505057392597685784e-01
8.499482812862932946e-01
8.508001424086886200e-01
8.522396215415890541e-01
8.602470887890564244e-01
8.954253455238490034e-01
9.714925865509366210e-01
1.058754736289116094e+00
1.148785516536153573e+00
1.110611410978424196e+00
1.028955038655802623e+00
9.556950176458904878e-01
9.167414937437771139e-01
9.053950792669899217e-01
9.043203953742011691e-01
9.047191399177441085e-01
9.052141612656892100e-01
9.060367220538120270e-01
9.075151377756801585e-01
9.098426359605674696e-01
9.217116933403537438e-01
9.628456584659376150e-01
1.038745549008283309e+00
1.122019308524084824e+00
1.042526046509649529e+00
1.019455565045794598e+00
9.781053728051752882e-01
9.520379844591404517e-01
9.448340519541359450e-01
9.450376728461449272e-01
9.445491623250562574e-01
9.420692522106796085e-01
9.394890688272892199e-01
9.376509517112536773e-01
9.369153746382437031e-01
9.379108791680860202e-01
9.423607888521242648e-01
9.564848635465916793e-01
9.907835882183956278e-01
1.039584964481053975e+00
1.024252721672262778e+00
9.941656341219150539e-01
9.367098694219709865e-01
8.956712196751458466e-01
8.801933423039233206e-01
8.770776386706119476e-01
8.755106805513594992e-01
8.728401552348991066e-01
8.705299777145777407e-01
8.692419548037384480e-01
8.688473058143115768e-01
8.698655686719489744e-01
8.759772992089489563e-01
8.978760375883713118e-01
9.477150356750372318e-01
1.012800862204402685e+00
1.013897599188373189e+00
9.661227109415431169e-01
8.602220108722723468e-01
7.558796435996127938e-01
6.902857818024618064e-01
6.644399928720480242e-01
6.577915284171811372e-01
6.560657276629686674e-01
6.540086086558002387e-01
6.512848542941452878e-01
6.505257971798804606e-01
6.569071240444491755e-01
6.845210435619575318e-01
7.547552747828697450e-01
8.643547152362077712e-01
9.729751765379970330e-01
7.955521535790657239e-01
7.616237091192490372e-01
6.975029277020147189e-01
6.541638985999236322e-01
6.390157154689436458e-01
6.353641160438963098e-01
6.338733715168957117e-01
6.321071926023428267e-01
6.318392212743805247e-01
6.337062867327170057e-01
6.346228800898398026e-01
6.335125336465511348e-01
6.356772090191624702e-01
6.532321276400823162e-01
7.014231693801520340e-01
7.698445409701457631e-01
8.165280410921140763e-01
7.787844155008586400e-01
7.062362093758866033e-01
6.556054572798067914e-01
6.378343030365066779e-01
6.343214200041518147e-01
6.330357467817153694e-01
6.313041549867888236e-01
6.311329535377656619e-01
6.332612972262371409e-01
6.348844561990746316e-01
6.339862044959939658e-01
6.352558928354091750e-01
6.543045342597255676e-01
7.096397039608837165e-01
7.861555772241085593e-01
8.643339892028998328e-01
8.225001246028569302e-01
7.400753685054820563e-01
6.775865077430810457e-01
6.554997507761873843e-01
6.572164247096439205e-01
6.620713197089199697e-01
6.640693626416741546e-01
6.648445767616945057e-01
6.664009622457999216e-01
6.676154192880867644e-01
6.661185829898615962e-01
6.670385590411367360e-01
6.904295375207039065e-01
7.524508742878586176e-01
8.326087736148682916e-01
7.566681187587137591e-01
7.308227069851838120e-01
6.876633241819702924e-01
6.669282735109604010e-01
6.675726776939341356e-01
6.723933164700270915e-01
6.733378750950717029e-01
6.702935956134534745e-01
6.664495532919333387e-01
6.650733216812831916e-01
6.670425553174784694e-01
6.686301203037980923e-01
6.661320409649853502e-01
6.677564806298499356e-01
6.941163592044845565e-01
7.456882609770005832e-01
7.774504455430549799e-01
7.491267566887482854e-01
7.009827603736858981e-01
6.763139110687705902e-01
6.755120939370110600e-01
6.796826678238213626e-01
6.795916599574722827e-01
6.761649985337493396e-01
6.727103063090098534e-01
6.722557123161037040e-01
6.750640080346620442e-01
6.769920057163399951e-01
6.748486651810809978e-01
6.780485734959699196e-01
7.084922776993461957e-01
7.652627211999318835e-01
8.205598090485083373e-01
7.873963750616703727e-01
7.263498112500780257e-01
6.865976732907075331e-01
6.762259900593510231e-01
6.785046747807591538e-01
6.809684378994278475e-01
6.821081090743575936e-01
6.843112438317947577e-01
6.879128312457800654e-01
6.918495390210753770e-01
6.956261382278894345e-01
7.008038274460386408e-01
7.187279798622191462e-01
7.638776764529853214e-01
8.267335801579314136e-01
7.461112585921175766e-01
7.184158249994151424e-01
6.703310569216438530e-01
6.427728117194043689e-01
6.367101951732299092e-01
6.378973370020972755e-01
6.395745782611462760e-01
6.404792908144935071e-01
6.422049418810337196e-01
6.453172212944333630e-01
6.479150983327716107e-01
6.478062491364657838e-01
6.461401175437131439e-01
6.527253968156254693e-01
6.849380283222165078e-01
7.394489871318873364e-01
7.552639744724912729e-01
7.252326525512139410e-01
6.729058404362385781e-01
6.428439434573364197e-01
6.368236936479114707e-01
6.392393230497099843e-01
6.420547276401765702e-01
6.434867466490676868e-01
6.451874915750537287e-01
6.481217365054890989e-01
6.503508657159102757e-01
6.494476397293647008e-01
6.469157815122541511e-01
6.542664727980948003e-01
6.905580238323533182e-01
7.509221414785912652e-01
7.649042728829517079e-01
7.304083909260434826e-01
6.650310119918028118e-01
6.184111061726665914e-01
6.022001401273860965e-01
6.021146520596232232e-01
6.053120610460778206e-01
6.088585140606611601e-01
6.127128170902995663e-01
6.161802490673129462e-01
6.174015666963975635e-01
6.157476963021801808e-01
6.145890784911761662e-01
6.297886334024691557e-01
6.802183133038206542e-01
7.528162143282010055e-01
7.159597505461737788e-01
6.883185200634586165e-01
6.415766383662462324e-01
6.153803325599874752e-01
6.106320198829598977e-01
6.134634381275104742e-01
6.164179511643991249e-01
6.188320697540911075e-01
6.211527267551973930e-01
6.241868990126991923e-01
6.271969474933937194e-01
6.276158451200695154e-01
6.236555118288229504e-01
6.242444228717509702e-01
6.479356015163924010e-01
6.951623159405206920e-01
7.312625957893711393e-01
7.026661440461196007e-01
6.544560817566311695e-01
6.278242175031009120e-01
6.235814360999564210e-01
6.268260796197367979e-01
6.301348048562631643e-01
6.329422156553067280e-01
6.352985063260258025e-01
6.381388494993132099e-01
6.409692717734163381e-01
6.410440506530846738e-01
6.366434361167575551e-01
6.374483866673505972e-01
6.627733936201499754e-01
7.126180111687216989e-01
7.793270202068456332e-01
7.472273653321519493e-01
6.894286446359548792e-01
6.537412739862471511e-01
6.480552983784019228e-01
6.544756829926025032e-01
6.587579299514545461e-01
6.590222368594964575e-01
6.589064861246789473e-01
6.601532853238025744e-01
6.609319954750503268e-01
6.589414324664145672e-01
6.559129232933652576e-01
6.670865247961089706e-01
7.095823376144551053e-01
7.733259813802203508e-01
7.762441417348223682e-01
7.547398097449271592e-01
7.221330603644907642e-01
7.098698914130432414e-01
7.128846365827287146e-01
7.180237425445156196e-01
7.200892372547056386e-01
7.193960313578420251e-01
7.179119423785089715e-01
7.176916610645983630e-01
7.173401318034796637e-01
7.147812524909951115e-01
7.097454755181786812e-01
7.086907296101709886e-01
7.275314935565747598e-01
7.675582539574772323e-01
7.839216981350843882e-01
7.600264905725068187e-01
7.227039427849539788e-01
7.073971860262978639e-01
7.099999600227793195e-01
7.161677738463080312e-01
7.193857883866731084e-01
7.189211066388563331e-01
7.171639996283574181e-01
7.169265340519255236e-01
7.169265908070342475e-01
7.150851119433462300e-01
7.109013178153821277e-01
7.119571176148120628e-01
7.353546920474712811e-01
7.805298321548070906e-01
7.836452335525885271e-01
7.533002194329406764e-01
7.005391898358823699e-01
6.688980488794755708e-01
6.610128276727599284e-01
6.625898241583457748e-01
6.656108004040287573e-01
6.681333225264728393e-01
6.703613476275065430e-01
6.725674706383619750e-01
6.736383335730987687e-01
6.729047787518666057e-01
6.719667898755949942e-01
6.815003698184157743e-01
7.169250687170808378e-01
7.720682279077741850e-01
7.020185706361374844e-01
6.751020783559666949e-01
6.321564179413523554e-01
6.125411165179652784e-01
6.120621786316999824e-01
6.154703208361017586e-01
6.181322699037525847e-01
6.197808004804820081e-01
6.208144240789471580e-01
6.224889337887129503e-01
6.245028376671165615e-01
6.244550174406026111e-01
6.190894899657051198e-01
6.151540290087829099e-01
6.326346509344336067e-01
6.758976378032722776e-01
7.191336085783791576e-01
6.913885241342807575e-01
6.472352988518652595e-01
6.277820657004756777e-01
6.286140043356227558e-01
6.331928961571733350e-01
6.364481166481980035e-01
6.379611473889867934e-01
6.384621873519864543e-01
6.399334592994757598e-01
6.421590048489782543e-01
6.419486275286112598e-01
6.356372291527372376e-01
6.314170079449951123e-01
6.507467054285671626e-01
6.967771313027705249e-01
7.838338238783727485e-01
7.540662142380649691e-01
7.030604564127284073e-01
6.751181101085937941e-01
6.726822212847439753e-01
6.784172440191827969e-01
6.819771649452770479e-01
6.830220088303522452e-01
6.839987496084537488e-01
6.866542339389312133e-01
6.889050455176376486e-01
6.876672650905301110e-01
6.817749190092627920e-01
6.818803896875912374e-01
7.088608814056724938e-01
7.611070230012435545e-01
7.711856528509245523e-01
7.495987924082536669e-01
7.166601808459207579e-01
7.032874644452857815e-01
7.051012391599660312e-01
7.113241123625316797e-01
7.161560973355776127e-01
7.179433365795392374e-01
7.195233443702770959e-01
7.221228991536139397e-01
7.243113846268882661e-01
7.244776489831169508e-01
7.230740331345175687e-01
7.247958623964222413e-01
7.411375354587843578e-01
7.755031756820554012e-01
7.821184289614113716e-01
7.590949475709269922e-01
7.225122902434345518e-01
7.057159445903312678e-01
7.061088564642166165e-01
7.122155554385586340e-01
7.169008664500723382e-01
7.182903088593320939e-01
7.197606054733550751e-01
7.224997398060030163e-01
7.250220671671442352e-01
7.255946289424204387e-01
7.246857901109148292e-01
7.280478784399954106e-01
7.475884356706253842e-01
7.848650586315628619e-01
7.702708176351540370e-01
7.386495676838836788e-01
6.815679081878318613e-01
6.431738785889803411e-01
6.304612610403989015e-01
6.322511099668630674e-01
6.367411579013095846e-01
6.401322044628239283e-01
6.443111026892602844e-01
6.482336839230031789e-01
6.509698987720613506e-01
6.531758250218927531e-01
6.562676778132536803e-01
6.697963626095921885e-01
7.063336486833237116e-01
7.601305036437709939e-01
7.579749105158044564e-01
7.251757718532348962e-01
6.683354080631824790e-01
6.358474044156076088e-01
6.298090239005423863e-01
6.350946983624167208e-01
6.416395674522573644e-01
6.448636540024563768e-01
6.469061709757931711e-01
6.497364208238353145e-01
6.522431153645321666e-01
6.526548683334253420e-01
6.493866206852230150e-01
6.501721218655276413e-01
6.728210868699243674e-01
7.197109426744950911e-01
7.676519202465030833e-01
7.342144593418687970e-01
6.752520048981449641e-01
6.402418764181474486e-01
6.332903525554044455e-01
6.394056871832985989e-01
6.471829778176204639e-01
6.512024801415167152e-01
6.537081375521072157e-01
6.566356465949492183e-01
6.594209437717183375e-01
6.600854921024094102e-01
6.568857609814696685e-01
6.581340224541858408e-01
6.817383598361892449e-01
7.288885250006148508e-01
8.036934434437760233e-01
7.723729637166060202e-01
7.169091882881459821e-01
6.814665608139844899e-01
6.711832773468902058e-01
6.740695059362623587e-01
6.798711935056320765e-01
6.836260511653093896e-01
6.870716470481882387e-01
6.912859272827481805e-01
6.950012094303368304e-01
6.958729535612097061e-01
6.939011713730400821e-01
6.988805488189526738e-01
7.255578191844991309e-01
7.717120927932884511e-01
8.652700654728062712e-01
8.445589853891611876e-01
8.143253263291833077e-01
8.024771755853669086e-01
8.030627249128008405e-01
8.056222574390611291e-01
8.066039291258536581e-01
8.057830898450671908e-01
8.045210618230287380e-01
8.041029283228048330e-01
8.051500591371818505e-01
8.072293710732830752e-01
8.101690929085167969e-01
8.160200197595667282e-01
8.317956393851504426e-01
8.608660208763133648e-01
8.818275889967192027e-01
8.606441656034803378e-01
8.292110906114306124e-01
8.165896794168752137e-01
8.171867368398901821e-01
8.198330497075061452e-01
8.207143055587822200e-01
8.196126179220434294e-01
8.181859856784174934e-01
8.180865750371769662e-01
8.196456005248005106e-01
8.222275997328910568e-01
8.254105404237226384e-01
8.317253881164119456e-01
8.490364665032215097e-01
8.800049729950137900e-01
9.021214718432902790e-01
8.802415409428322457e-01
8.463740035168937359e-01
8.316638021127875646e-01
8.322615137631770299e-01
8.351068549637407079e-01
8.357770135817148560e-01
8.351827269731250114e-01
8.353087622406587531e-01
8.371585992707449853e-01
8.387462504131744101e-01
8.384115376374551287e-01
8.378072871146686751e-01
8.430895831169675780e-01
8.643738224274607473e-01
9.002925737646114701e-01
8.882270173249900980e-01
8.696420419781742961e-01
8.404771650053266541e-01
8.289054907263504468e-01
8.314449687006340017e-01
8.350139189196198464e-01
8.346953517593311833e-01
8.321245932492308262e-01
8.311078067488383292e-01
8.335246773883168148e-01
8.364720372338323440e-01
8.362726079462267093e-01
8.333176352127648068e-01
8.344557027138823635e-01
8.522561904321942494e-01
8.872204895316608830e-01
9.606223047224470291e-01
9.438398620504061531e-01
9.176831367096613956e-01
9.076856784216893459e-01
9.122198021371691334e-01
9.188077065783029074e-01
9.201791137770403139e-01
9.177618671652520987e-01
9.160559172813614870e-01
9.174890950444853921e-01
9.193373505510590293e-01
9.178400787460556653e-01
9.131011910402239140e-01
9.115892689298312757e-01
9.251318872995881737e-01
9.545875514645674187e-01
8.813986641372243414e-01
8.629758978434296512e-01
8.334411288774009607e-01
8.192456845448569114e-01
8.190005731577131298e-01
8.221720181017213580e-01
8.232446748927390034e-01
8.225068615696788932e-01
8.226855026767774248e-01
8.243502618771970658e-01
8.258621027575234752e-01
8.256753865452710617e-01
8.240846624951476684e-01
8.269269346349069627e-01
8.443529439550059301e-01
8.752864925092456172e-01
8.881794201998894911e-01
8.669129909376472876e-01
8.303513018581575311e-01
8.084017885311658436e-01
8.026465259892257009e-01
8.030321229902990243e-01
8.028650502637252329e-01
8.018590204996631776e-01
8.023722992997921466e-01
8.040354489178298536e-01
8.044883879654005643e-01
8.027492822453096144e-01
8.014586167814913287e-01
8.092719257078653250e-01
8.359551404611650360e-01
8.760750091296388709e-01
9.065067964552055990e-01
8.836057045759865280e-01
8.395058595445876737e-01
8.067050864137843558e-01
7.936967136545551860e-01
7.927085143651266819e-01
7.951109217666599838e-01
7.969361600018518565e-01
7.977142063669352412e-01
7.981225841056175385e-01
7.979673032503628027e-01
7.966152600403967332e-01
7.967217206980961031e-01
8.083294674889530684e-01
8.406967143760311068e-01
8.849342100425902080e-01
9.358518251960029621e-01
9.110912455564329493e-01
8.626441252590564268e-01
8.257217581933405937e-01
8.117062095620738438e-01
8.122259906416587905e-01
8.155271208080471235e-01
8.176982589656218714e-01
8.194014996663726569e-01
8.207144699385061637e-01
8.208885931635053756e-01
8.195775937450573423e-01
8.200263741535105400e-01
8.341248447202048721e-01
8.711808886695107113e-01
9.197942400627406867e-01
1.067307195914215079e+00
1.054683956211666329e+00
1.033165390678693729e+00
1.019571350640328333e+00
1.013965444495154022e+00
1.011287930407915869e+00
1.009200290056218696e+00
1.008381446088397970e+00
1.009804182516926829e+00
1.012802067276297180e+00
1.014976347695120573e+00
1.015326202852983695e+00
1.015911035233853399e+00
1.020476878099485729e+00
1.032660307645835163e+00
1.051714394102659877e+00
1.091630739121353555e+00
1.076375274977308116e+00
1.048548915864337072e+00
1.028739670213197233e+00
1.019837572111359281e+00
1.016550749539793408e+00
1.014594436389019583e+00
1.013195307917935883e+00
1.013285797577373915e+00
1.015211560290840476e+00
1.017427766525307087e+00
1.018818613976191667e+00
1.021252745182214650e+00
1.029641125576411742e+00
1.048493960672742142e+00
1.074761422365442254e+00
1.234220382950611539e+00
1.226791746475889955e+00
1.216946402694069285e+00
1.216034461858526816e+00
1.221002353063474599e+00
1.225077275519624864e+00
1.225877916526729727e+00
1.225244027350003151e+00
1.224432052780773716e+00
1.223522600090926948e+00
1.222138711389834764e+00
1.219339191767682351e+00
1.214355843339834928e+00
1.209780842659726519e+00
1.212252914204484888e+00
1.223871725918967757e+00
1.291993573776986759e+00
1.285738684687919298e+00
1.277696793456761570e+00
1.277295922525259142e+00
1.281030571549033326e+00
1.282958337980832919e+00
1.281962837617846906e+00
1.280202039727778018e+00
1.278807347542891604e+00
1.277794658098595715e+00
1.276077967417841741e+00
1.271943796478808064e+00
1.265203902144802273e+00
1.259006787778623071e+00
1.259396258216758602e+00
1.268460341562135607e+00
1.257790840436352697e+00
1.254299066946256147e+00
1.253279009511747866e+00
1.261669670571202051e+00
1.274093346682535266e+00
1.283422673207017750e+00
1.287977114557344205e+00
1.289459557136315659e+00
1.289097146220431922e+00
1.287758117260952018e+00
1.285710266756730613e+00
1.281775760149724164e+00
1.274629213116567072e+00
1.266077714264772114e+00
1.262305700778687978e+00
1.267257835700544621e+00
1.322316566951786232e+00
1.321258316529136057e+00
1.325290882676292581e+00
1.338303928359350747e+00
1.353759265246716748e+00
1.364861327540433988e+00
1.370700082815775600e+00
1.373199816127612882e+00
1.373415758105830387e+00
1.372152901091759247e+00
1.370074688132373542e+00
1.365945630526020915e+00
1.357261266511579301e+00
1.345359592484078881e+00
1.337420333138199302e+00
1.338576469264716851e+00
1.105041078276071564e+00
1.096419069167549498e+00
1.083118018240046165e+00
1.076167161831121488e+00
1.074100764585189882e+00
1.074084297309764180e+00
1.075593719478486809e+00
1.078902709385361147e+00
1.083467317226043614e+00
1.087842358644095064e+00
1.090187070852331130e+00
1.089459618304681188e+00
1.086183739093448342e+00
1.083418020325382924e+00
1.086135882752148563e+00
1.096816946196599307e+00
1.137889451914349870e+00
1.127099296809241036e+00
1.107517571477772966e+00
1.093219273029171212e+00
1.086628582227457285e+00
1.085635988434462407e+00
1.088045404068585187e+00
1.092518078310182439e+00
1.097696612380374193e+00
1.102127824063505512e+00
1.104228053961453071e+00
1.103186521642661955e+00
1.100818423620814945e+00
1.101805795866476201e+00
1.110911861386649324e+00
1.127432189089784043e+00
9.705317160256150544e-01
9.555070343868187210e-01
9.287437886242512208e-01
9.124700992510978992e-01
9.090384451791670983e-01
9.111580637638622138e-01
9.138610414396375337e-01
9.154861661557505137e-01
9.165211183788747329e-01
9.180644278042576767e-01
9.197390418726686390e-01
9.201215038515832001e-01
9.200617773613105621e-01
9.257461427440717427e-01
9.439812058665330019e-01
9.712976054488500210e-01
9.992236065753404839e-01
9.836431790197484037e-01
9.546634150334361024e-01
9.351599553007522436e-01
9.300374352518443466e-01
9.330430182632227787e-01
9.372650874685894973e-01
9.398040797677699176e-01
9.409150869127026473e-01
9.414248452283223711e-01
9.415767385251450072e-01
9.410534313061914569e-01
9.413057638897814883e-01
9.487004309578228600e-01
9.693331369481683613e-01
9.982526199603792838e-01
8.814236644584012570e-01
8.699468948570461269e-01
8.492406988698701920e-01
8.335462348183670933e-01
8.243248442944848264e-01
8.190438338298965393e-01
8.148976087572884497e-01
8.119300414601686722e-01
8.113322652487245934e-01
8.127965390241893573e-01
8.146086175064179979e-01
8.167816740655358121e-01
8.221515124029379340e-01
8.351496317811248904e-01
8.581923578321878354e-01
8.861721117046137408e-01
9.292137535131421711e-01
9.159868475913992558e-01
8.905910076850425128e-01
8.700301508676795414e-01
8.582931174307267819e-01
8.532178036209678851e-01
8.507695519828784025e-01
8.492942949977952960e-01
8.496838738543591729e-01
8.519894720762110074e-01
8.546657346091446339e-01
8.574255534001802292e-01
8.630892516703713158e-01
8.772660830673293386e-01
9.036086132325169551e-01
9.355007582817927991e-01
9.030813571253837324e-01
8.931764245497190169e-01
8.745514954244035799e-01
8.619798814897907668e-01
8.605011230095493957e-01
8.664838206454803515e-01
8.733072635875346323e-01
8.776694172640198133e-01
8.798243500292632913e-01
8.813162690973596058e-01
8.827105495245896050e-01
8.827563474795091514e-01
8.825332499877256431e-01
8.882073201528545292e-01
9.039088756049357132e-01
9.247679454002375454e-01
9.582956423778284938e-01
9.470276442990103183e-01
9.254526764285636586e-01
9.101079735641813828e-01
9.066867137419087896e-01
9.118114262431379347e-01
9.185180451405320357e-01
9.232110300612357268e-01
9.262025818012530332e-01
9.282118136654465834e-01
9.289334620790322683e-01
9.277296685399614162e-01
9.277721451682886533e-01
9.363271556731881384e-01
9.564439744341367566e-01
9.814626719173873415e-01
9.839356765263335136e-01
9.820906733746319617e-01
9.829373280467151863e-01
9.917773920069398175e-01
1.005062142129411029e+00
1.016741503324128715e+00
1.023726905506464169e+00
1.027052040841928582e+00
1.028648587378577339e+00
1.028710281662673198e+00
1.025684597880179405e+00
1.017239508085720834e+00
1.003876300509717767e+00
9.907593601793224236e-01
9.843072895159072910e-01
9.868206634455266579e-01
1.046077569725165191e+00
1.042570540405588941e+00
1.038569448120211902e+00
1.041858665895207370e+00
1.051656436234548408e+00
1.063074388832547568e+00
1.071918091137362028e+00
1.077011061504064005e+00
1.079156087936416153e+00
1.078875797686834170e+00
1.075242756915842479e+00
1.066868248043764567e+00
1.055540496366190739e+00
1.046601459716441918e+00
1.044801524824446437e+00
1.050358975006895790e+00
9.452655635436618686e-01
9.381771901902538069e-01
9.282488646211419780e-01
9.274000548771629271e-01
9.350247439507194391e-01
9.444021897595703541e-01
9.500049974950618425e-01
9.510761817233880366e-01
9.504904330947752111e-01
9.503669981415530099e-01
9.495334638161301299e-01
9.448591576079959919e-01
9.365974154558551756e-01
9.306266381136834021e-01
9.326462432010723669e-01
9.425248581616940680e-01
1.012319561963127112e+00
1.005627610432950014e+00
9.964212550886355491e-01
9.966019394507250606e-01
1.005417560819630518e+00
1.016273640072547613e+00
1.023607197275182346e+00
1.026470657007185316e+00
1.027173460042821285e+00
1.027233868198343059e+00
1.025534780923541556e+00
1.019592857166742084e+00
1.010292109077035816e+00
1.003748295831078829e+00
1.005882086069531223e+00
1.016292185354482625e+00
9.241732910814949298e-01
9.115584557622551376e-01
8.885507392220765022e-01
8.715604388885042075e-01
8.637143256494358434e-01
8.633655489197261668e-01
8.667091910501781848e-01
8.692414371086082392e-01
8.693474139749821639e-01
8.676476303767104437e-01
8.651821171024037804e-01
8.628634061110359577e-01
8.624785551375198089e-01
8.679159549308667065e-01
8.825685627927030152e-01
9.040657221981279745e-01
9.744935610548487448e-01
9.607998896721874349e-01
9.347934824147825505e-01
9.150381725684865186e-01
9.064243841405434932e-01
9.063936019982993253e-01
9.097021450773511431e-01
9.119146260852498687e-01
9.122772516334397563e-01
9.112529245287667168e-01
9.089192329105284518e-01
9.061665601879766996e-01
9.054092007470795345e-01
9.114627029474102748e-01
9.282024485481037424e-01
9.520529686045002826e-01
8.940762184179938954e-01
8.788714898783678287e-01
8.553789793252420948e-01
8.466295165099813058e-01
8.509303664213062612e-01
8.577175300127176660e-01
8.608693872384266532e-01
8.600806417765775036e-01
8.585234649127635453e-01
8.587037477521211049e-01
8.601853254524649550e-01
8.599459874925744485e-01
8.553516051612595206e-01
8.510557046441554752e-01
8.589252757129061111e-01
8.816981411706630301e-01
9.364389221646763906e-01
9.218433953085053423e-01
8.975180590527038760e-01
8.852226640155058668e-01
8.858764837011507964e-01
8.910703618994046948e-01
8.943041407415617261e-01
8.941984504938664813e-01
8.932354989752155916e-01
8.936910667942522535e-01
8.949558785239708492e-01
8.942166671123201738e-01
8.903296003713944140e-01
8.887824584378368753e-01
8.991128566891262164e-01
9.217106439053313061e-01
8.976951303080887845e-01
8.854925009879357489e-01
8.673345264725434989e-01
8.595104048732573609e-01
8.583307938774018542e-01
8.565483491490374357e-01
8.527754442871925411e-01
8.489673512190698546e-01
8.473703021759237952e-01
8.489297081220940067e-01
8.514055599317688072e-01
8.526871542579489427e-01
8.528669572591988102e-01
8.547139159217288507e-01
8.652980687660440928e-01
8.870281986670500718e-01
9.384557932896362420e-01
9.263088569451347620e-01
9.064649380058655836e-01
8.960934086466924020e-01
8.940190831651563252e-01
8.932264521921027267e-01
8.911575691242737962e-01
8.889603025797545577e-01
8.880899728961121342e-01
8.890959146939337865e-01
8.903527028855295899e-01
8.905355673240358261e-01
8.904932118546247111e-01
8.939870644687898382e-01
9.072352005993467028e-01
9.301383839863067715e-01
8.656516258745319270e-01
8.489509210039909437e-01
8.174014163727557625e-01
7.945808144637099835e-01
7.858657622826868971e-01
7.849167929796955212e-01
7.852271533088533984e-01
7.862682818147364028e-01
7.888664869710404481e-01
7.921728810614899752e-01
7.953331942401986598e-01
7.974917253395603645e-01
7.999204022650192591e-01
8.086451591674221895e-01
8.300034139275733747e-01
8.593937592645681800e-01
7.690014172715550211e-01
7.528435962227320033e-01
7.248773948357835062e-01
7.074913826356999946e-01
7.012293727844614022e-01
6.997705481206544231e-01
7.001655859456984432e-01
7.013632888442632440e-01
7.026608955451904004e-01
7.038918035482288893e-01
7.051654165208210978e-01
7.065673339907595496e-01
7.082825176995373173e-01
7.127772590565946143e-01
7.268935164088862200e-01
7.517240959642359499e-01
6.829885544250045015e-01
6.651619092231272345e-01
6.332905770529813072e-01
6.120531985519948037e-01
6.040909559312316324e-01
6.031505546779322158e-01
6.043822973153014644e-01
6.062670544813498763e-01
6.086441378465542451e-01
6.104423993340305499e-01
6.103994375060706190e-01
6.092930983040314441e-01
6.094885377599602583e-01
6.142597874635293831e-01
6.294428499633341056e-01
6.552061914966745837e-01
7.209196598257606725e-01
7.098036124534343738e-01
6.925783021046858501e-01
6.866974197165698346e-01
6.910417788587783772e-01
6.980288397756423402e-01
7.023971637237675925e-01
7.026199157418944186e-01
7.003079282700040986e-01
6.972581157853284806e-01
6.930675738331334435e-01
6.861308636455676346e-01
6.774568141480343808e-01
6.730538954459910350e-01
6.805514775415213435e-01
6.995473642730614117e-01
7.317460902843168080e-01
7.195629593041890093e-01
6.991569648995791253e-01
6.888057511589842363e-01
6.882992747920111398e-01
6.901134659794875281e-01
6.897538188747180943e-01
6.874089337067610384e-01
6.842471572156458848e-01
6.804696050525343987e-01
6.759170825360758528e-01
6.703043341386778486e-01
6.652285133107812554e-01
6.668384586752428289e-01
6.821809343728747477e-01
7.078941589416701818e-01
7.318246518735853634e-01
7.219122717463091199e-01
7.042370838809559608e-01
6.931576422792918857e-01
6.902956222911816875e-01
6.914975709410984273e-01
6.926870277566572476e-01
6.926950183502318392e-01
6.920375149035847828e-01
6.910051433285160360e-01
6.890177464195648138e-01
6.852932636043493897e-01
6.810654491540942823e-01
6.802656188043296748e-01
6.879621956376142933e-01
7.040554639703060502e-01
8.421740503600607664e-01
8.328490343542682695e-01
8.162004616804715562e-01
8.076277768288234737e-01
8.102375101771859267e-01
8.178286453620253749e-01
8.236533730532398234e-01
8.253928166580409842e-01
8.244940419922829333e-01
8.221816377009036891e-01
8.171501521919687372e-01
8.082005365109166117e-01
7.988012800852609674e-01
7.975799176973432658e-01
8.103804943603982736e-01
8.313256703188047769e-01
9.226683335904561911e-01
9.238189371793039673e-01
9.299234149829891383e-01
9.413545750896091802e-01
9.546386838988536461e-01
9.660998192168540610e-01
9.732269999124247839e-01
9.762076681556945967e-01
9.766465032566070681e-01
9.749025886759430382e-01
9.701937203382386965e-01
9.620819404292539900e-01
9.515902512122542678e-01
9.413080202098644822e-01
9.339618505837803397e-01
9.314476923247466678e-01
